…
Прочитаем вышеприведенный файл с данными о ветровой энергии:

```r
(wenergy = read_table('wind_energy.txt', col_names = c('id', 'lat', 'lon', 'energy50', 'energy110')))
## Parsed with column specification:
## cols(
##   id = col_integer(),
##   lat = col_double(),
##   lon = col_double(),
##   energy50 = col_double(),
##   energy110 = col_double()
## )
## # A tibble: 92 x 5
##       id   lat   lon energy50 energy110
##    <int> <dbl> <dbl>    <dbl>     <dbl>
##  1     1  43.5  28       111.      178.
##  2     2  43.5  28.5     187.      301.
##  3     3  44    28.5     169.      271.
##  4     4  44.5  28.5     157.      253.
##  5     5  44.5  29       189.      304.
##  6     6  45    29       170.      274.
##  7     7  45    29.5     199.      320.
##  8     8  45.5  29.5     189.      303.
##  9     9  46    30       180.      289.
## 10    10  46    30.5     208.      334.
## # ... with 82 more rows
```

### Таблицы Microsoft Excel {#tables_reading_excel}

Для чтения таблиц Microsoft Excel, так же как и для тектовых файлов, существуют множество пакетов, таких как [xlsx](https://cran.r-project.org/web/packages/xlsx/index.html), [openxlsx](https://cran.r-project.org/web/packages/openxlsx/index.html) и [readxl](https://cran.r-project.org/web/packages/readxl/index.html). 

Я рекомендую пользоваться пакетом __readxl__, поскольку он не имеет внешних зависимостей, а его функции концептуально идентичны функциям пакета __readr__. Прочтем данные о лесовосстановлении (в тысяч га), полученные из регионального ежегодника Росстата за 2017 год. Эта таблица содержит колонку с названием субъекта и еще 8 колонок с данными по годам. Поскольку в таблице есть пропущенные значения, необходимо определить типы столбцов (в противном случае они могут быть определены как текстовые):

```r
library(readxl)
(reforest = read_excel('reforest.xlsx', 
                       col_types = c('text', rep('numeric', 8))))
## # A tibble: 89 x 9
##    Region          `2005` `2010` `2011` `2012` `2013` `2014` `2015` `2016`
##    <chr>            <dbl>  <dbl>  <dbl>  <dbl>  <dbl>  <dbl>  <dbl>  <dbl>
##  1 Российская Фед…  812.   812.   860    842.   872.   863    803.   840. 
##  2 Центральный фе…   52.6   62.7   60.9   60.3   70.9   71.2   72.6   77  
##  3 Белгородская о…    0.4    0.1    0.3    0.3    0.4    0.4    0.2    0.2
##  4 Брянская облас…    2.9    2.8    3      3.2    3.5    3.3    3.1    3  
##  5 Владимирская о…    4.4    5.3    5.7    6      7.1    5.9    6      4.9
##  6 Воронежская об…    1.1    1.1    1.8    3      2.7    2.7    2.6    2.3
##  7 Ивановская обл…    2.1    1.6    2.2    3.1    4      4.8    4.6    4.2
##  8 Калужская обла…    2.2    2.3    2.3    2.5    2.4    3.1    3.2    3.2
##  9 Костромская об…   10     25.2   11     11.8   15.3   13.6   15.1   16.4
## 10 Курская область    0.5    0.3    0.4    0.6    0.6    0.6    0.5    0.4
## # ... with 79 more rows
```
…
## Просмотр {#tables_view}

Для просмотра фрейма данных в консоли __RStudio__ вы можете использовать несколько опций. Пусть наш фрейм данных называется `reforest`. Тогда:

1. `print(reforest)` --- выводит фрейм в консоль целиком (можно написать просто `tab` в консоли).
2. `head(reforest, n)` --- отбирает первые $n$ строк фрейма 
3. `tail(reforest, n)` --- отбирает последние $n$ строк фрейма

По умолчанию для функций `head()` и `tail()` $n=6$. Обычно этот параметр опускают, поскольку нужно просмотреть только первые несколько строк и шести вполне достаточно. Если вы напечатаете в консоли `head(reforest)` или `tail(reforest)`, то для выбранных строк будет вызвана функция `print()`, аналогично выводу всего фрейма:

```r
# ПРОСМОТР ТАБЛИЦЫ
print(reforest)
## # A tibble: 89 x 9
##    Region          `2005` `2010` `2011` `2012` `2013` `2014` `2015` `2016`
##    <chr>            <dbl>  <dbl>  <dbl>  <dbl>  <dbl>  <dbl>  <dbl>  <dbl>
##  1 Российская Фед…  812.   812.   860    842.   872.   863    803.   840. 
##  2 Центральный фе…   52.6   62.7   60.9   60.3   70.9   71.2   72.6   77  
##  3 Белгородская о…    0.4    0.1    0.3    0.3    0.4    0.4    0.2    0.2
##  4 Брянская облас…    2.9    2.8    3      3.2    3.5    3.3    3.1    3  
##  5 Владимирская о…    4.4    5.3    5.7    6      7.1    5.9    6      4.9
##  6 Воронежская об…    1.1    1.1    1.8    3      2.7    2.7    2.6    2.3
##  7 Ивановская обл…    2.1    1.6    2.2    3.1    4      4.8    4.6    4.2
##  8 Калужская обла…    2.2    2.3    2.3    2.5    2.4    3.1    3.2    3.2
##  9 Костромская об…   10     25.2   11     11.8   15.3   13.6   15.1   16.4
## 10 Курская область    0.5    0.3    0.4    0.6    0.6    0.6    0.5    0.4
## # ... with 79 more rows
…
Как можно видеть, этих функций совсем немного. Дополнительно к ним пакет __dplyr__ содержит еще множество вспомогательных функций, которые применяются при выполнении основных манипуляций.

Рассмотрим применение этих функций на примере работы с таблицей по восстановлению лесного фонда в регионах России. Для начала переименуем столбцы с годами, чтобы их названия начинались с буквы `y`:

```r
old_names = colnames(reforest)
colnames(reforest) = c(old_names[1], paste('y', old_names[2:9], sep = ''))
```

Начнем с __выбора__ нужных переменных, используя `select()`. Оставим только название региона и данные за 2010 и 2015 гг:

```r
(rdf = select(reforest, Region, y2010, y2015))
## # A tibble: 89 x 3
##    Region                        y2010 y2015
##    <chr>                         <dbl> <dbl>
##  1 Российская Федерация          812.  803. 
##  2 Центральный федеральный округ  62.7  72.6
##  3 Белгородская область            0.1   0.2
##  4 Брянская область                2.8   3.1
##  5 Владимирская область            5.3   6  
##  6 Воронежская область             1.1   2.6
##  7 Ивановская область              1.6   4.6
##  8 Калужская область               2.3   3.2
##  9 Костромская область            25.2  15.1
## 10 Курская область                 0.3   0.5
## # ... with 79 more rows
```
Ту же самую задачу можно решить от противного — указать со знаком `-` те столбцы, которые надо убрать:

```r
(rdf = select(reforest, -y2005, -y2011:-y2014, -y2016))
## # A tibble: 89 x 3
##    Region                        y2010 y2015
##    <chr>                         <dbl> <dbl>
##  1 Российская Федерация          812.  803. 
##  2 Центральный федеральный округ  62.7  72.6
##  3 Белгородская область            0.1   0.2
##  4 Брянская область                2.8   3.1
##  5 Владимирская область            5.3   6  
##  6 Воронежская область             1.1   2.6
##  7 Ивановская область              1.6   4.6
##  8 Калужская область               2.3   3.2
##  9 Костромская область            25.2  15.1
## 10 Курская область                 0.3   0.5
## # ... with 79 more rows
```
Обратите внимание на то, что можно указывать еще и диапазоны названий столбцов, если они идут друг за другом.

> Названия столбцов в функциях __dplyr__ указываются без кавычек, что позволяет сделат код проще и читаемее. Этот прием называется _квотацией_, с ним мы познакомимся подробнее в следующей лекции.

Чтобы осуществить __фильтрацию__, необходимо задать условие, накладываемое на строки. Текущая таблица содержит данные по субъектам, федеральным округам и России в целом. Поскольку данные по округам и стране являются избыточными (их можно получить путем агрегирования данных по субъектам), выполним фильтрацию таблицы, убрав строки, в которых содержатся слова `Федерация` и `федеральный округ`. Для этого используем функцию `str_detect()` из пакета __stringr__, который также входит в _tidyverse_:

```r
flt = !stringr::str_detect(rdf$Region, 'Федерация|федеральный округ') # готовим фильтр для строк
(regdf = filter(rdf, flt)) # применяем фильтр
## # A tibble: 80 x 3
##    Region               y2010 y2015
##    <chr>                <dbl> <dbl>
##  1 Белгородская область   0.1   0.2
##  2 Брянская область       2.8   3.1
##  3 Владимирская область   5.3   6  
##  4 Воронежская область    1.1   2.6
##  5 Ивановская область     1.6   4.6
##  6 Калужская область      2.3   3.2
##  7 Костромская область   25.2  15.1
##  8 Курская область        0.3   0.5
##  9 Липецкая область       0.4   1.1
## 10 Московская область     2.7   8.9
## # ... with 70 more rows
```
…
Для сортировки таблицы посредством `arrange()` необходимо указать столбцы, по которым будет осуществлено упорядочение строк. Чаще всего это один столбец, например _y2015_:

```r
arrange(regdf, y2015) # по возрастанию
## # A tibble: 80 x 3
##    Region                              y2010 y2015
##    <chr>                               <dbl> <dbl>
##  1 Орловская область                     0     0.1
##  2 Астраханская область                  0.1   0.1
##  3 Кабардино-Балкарская Республика       0.1   0.1
##  4 Карачаево-Черкесская Республика       0.2   0.1
##  5 Республика Северная Осетия – Алания  NA     0.1
##  6 Ставропольский край                   0.4   0.1
##  7 Белгородская область                  0.1   0.2
##  8 Тульская область                      0.1   0.2
##  9 Магаданская область                   2.6   0.4
## 10 Курская область                       0.3   0.5
## # ... with 70 more rows
arrange(regdf, desc(y2015)) # по убыванию
## # A tibble: 80 x 3
##    Region                y2010 y2015
##    <chr>                 <dbl> <dbl>
##  1 Иркутская область      80.4 117. 
##  2 Хабаровский край       70.2  59.6
##  3 Архангельская область  39.4  57.6
##  4 Красноярский край      49    50.4
##  5 Вологодская область    32.3  49  
##  6 Республика Коми        33.3  36.7
##  7 Пермский край          22.9  32.5
##  8 Кировская область      26    31.1
##  9 Амурская область       29.8  28.5
## 10 Томская область         9.3  25.6
## # ... with 70 more rows
```
Добавление новых столбцов осуществляется посредством `mutate()`. Например, определим, как изменился объем лесовосстановительных работ в 2015 году по сравнению с 2010 годом:

```r
(regdf = mutate(regdf, delta = y2015 - y2010))
## # A tibble: 80 x 4
##    Region               y2010 y2015  delta
##    <chr>                <dbl> <dbl>  <dbl>
##  1 Белгородская область   0.1   0.2   0.1 
##  2 Брянская область       2.8   3.1   0.3 
##  3 Владимирская область   5.3   6     0.7 
##  4 Воронежская область    1.1   2.6   1.5 
##  5 Ивановская область     1.6   4.6   3.00
##  6 Калужская область      2.3   3.2   0.9 
##  7 Костромская область   25.2  15.1 -10.1 
##  8 Курская область        0.3   0.5   0.2 
##  9 Липецкая область       0.4   1.1   0.7 
## 10 Московская область     2.7   8.9   6.2 
## # ... with 70 more rows
```
Существует редко используемая разновидность мутирования, при которой сохраняются только столбцы, указанные в параметрах. Она называется `transmute()` --- по сути это кобинация `mutate()` и `select()`. Если вы хотите просто сохранить какой-то из столбцов, то укажите его через оператор равенства:

```r
transmute(regdf, Region = Region, delta = y2015 - y2010) # сохраняем только Region и delta
## # A tibble: 80 x 2
##    Region                delta
##    <chr>                 <dbl>
##  1 Белгородская область   0.1 
##  2 Брянская область       0.3 
##  3 Владимирская область   0.7 
##  4 Воронежская область    1.5 
##  5 Ивановская область     3.00
##  6 Калужская область      0.9 
##  7 Костромская область  -10.1 
##  8 Курская область        0.2 
##  9 Липецкая область       0.7 
## 10 Московская область     6.2 
## # ... with 70 more rows
```
…
Достаточно часто данные надо агрегировать не по всей таблице, а _по группам_ измерений. Предположим, что нам нужно найти регион с наихудшей тенденцией изменения лесовосстановительных работ в каждом федеральном округе. Для этого нам потребуется:

- Дополнить каждую строку региона информацией о принадлежности к федеральному округу
- Сгруппировать субъекты по федеральным округам
— Отсортировать каждую группу по убыванию значения поля
- Взять первую строку в каждой группе
- Объединить результаты

Для начала вернемся на этап, когда мы избавлялись от федеральных округов в таблице. Поскольку в исходной таблице данные были упорядочены по округам, эту информацию можно использовать для создания нового столбца с названием округа каждого субъекта. В этом нам поможет функция `fill()` из пакета __tidyr__:

```r
flt2 = stringr::str_detect(rdf$Region, 'федеральный округ') # ищем округа
(rdf2 = mutate(rdf, okrug = if_else(flt2, Region, NULL))) # перенесем названия округов в новый столбец
## # A tibble: 89 x 4
##    Region                        y2010 y2015 okrug                        
##    <chr>                         <dbl> <dbl> <chr>                        
##  1 Российская Федерация          812.  803.  <NA>                         
##  2 Центральный федеральный округ  62.7  72.6 Центральный федеральный округ
##  3 Белгородская область            0.1   0.2 <NA>                         
##  4 Брянская область                2.8   3.1 <NA>                         
##  5 Владимирская область            5.3   6   <NA>                         
##  6 Воронежская область             1.1   2.6 <NA>                         
##  7 Ивановская область              1.6   4.6 <NA>                         
##  8 Калужская область               2.3   3.2 <NA>                         
##  9 Костромская область            25.2  15.1 <NA>                         
## 10 Курская область                 0.3   0.5 <NA>                         
## # ... with 79 more rows
(rdf2 = tidyr::fill(rdf2, okrug)) # заполним все пустые строчки предыдущим значением
## # A tibble: 89 x 4
##    Region                        y2010 y2015 okrug                        
##    <chr>                         <dbl> <dbl> <chr>                        
##  1 Российская Федерация          812.  803.  <NA>                         
##  2 Центральный федеральный округ  62.7  72.6 Центральный федеральный округ
##  3 Белгородская область            0.1   0.2 Центральный федеральный округ
##  4 Брянская область                2.8   3.1 Центральный федеральный округ
##  5 Владимирская область            5.3   6   Центральный федеральный округ
##  6 Воронежская область             1.1   2.6 Центральный федеральный округ
##  7 Ивановская область              1.6   4.6 Центральный федеральный округ
##  8 Калужская область               2.3   3.2 Центральный федеральный округ
##  9 Костромская область            25.2  15.1 Центральный федеральный округ
## 10 Курская область                 0.3   0.5 Центральный федеральный округ
## # ... with 79 more rows
(regdf = filter(rdf2, flt)) # оставим только регионы
## # A tibble: 80 x 4
##    Region               y2010 y2015 okrug                        
##    <chr>                <dbl> <dbl> <chr>                        
##  1 Белгородская область   0.1   0.2 Центральный федеральный округ
##  2 Брянская область       2.8   3.1 Центральный федеральный округ
##  3 Владимирская область   5.3   6   Центральный федеральный округ
##  4 Воронежская область    1.1   2.6 Центральный федеральный округ
##  5 Ивановская область     1.6   4.6 Центральный федеральный округ
##  6 Калужская область      2.3   3.2 Центральный федеральный округ
##  7 Костромская область   25.2  15.1 Центральный федеральный округ
##  8 Курская область        0.3   0.5 Центральный федеральный округ
##  9 Липецкая область       0.4   1.1 Центральный федеральный округ
## 10 Московская область     2.7   8.9 Центральный федеральный округ
## # ... with 70 more rows
```
…
Функция `gather()` ожидает получить следующие параметры:

- `data` --- входная таблица (фрейм данных или тиббл)
- `key` --- имя нового столбца, который будет хранить ключи
- `value` --- имя нового столбца, который будет хранить значения
- `...` --- перечисление столбцов, которые необходимо подвергнуть преобразованию

Рассмотрим на примере таблицы _reforest_ приведение к аккуратному виду:

```r
library(tidyr)
(reforest_tidy = reforest %>% gather(year, value, y2005:y2016))
## # A tibble: 712 x 3
##    Region                        year  value
##    <chr>                         <chr> <dbl>
##  1 Российская Федерация          y2005 812. 
##  2 Центральный федеральный округ y2005  52.6
##  3 Белгородская область          y2005   0.4
##  4 Брянская область              y2005   2.9
##  5 Владимирская область          y2005   4.4
##  6 Воронежская область           y2005   1.1
##  7 Ивановская область            y2005   2.1
##  8 Калужская область             y2005   2.2
##  9 Костромская область           y2005  10  
## 10 Курская область               y2005   0.5
## # ... with 702 more rows
```
Осталось избавиться от буквы `y` перед каждым годом — для этого можно использовать `separate()`, `select()` и `mutate()` чтобы отделить букву в отдельный столбец, отбросить его, а оставшийся год преобразовать к целочисленному значению:

```r
reforest_tidy = reforest_tidy %>% 
  separate(year, c('y', 'year'), 1) %>% 
  select(-y) %>% 
  mutate(year = as.integer(year))
reforest_tidy
## # A tibble: 712 x 3
##    Region                         year value
##    <chr>                         <int> <dbl>
##  1 Российская Федерация           2005 812. 
##  2 Центральный федеральный округ  2005  52.6
##  3 Белгородская область           2005   0.4
##  4 Брянская область               2005   2.9
##  5 Владимирская область           2005   4.4
##  6 Воронежская область            2005   1.1
##  7 Ивановская область             2005   2.1
##  8 Калужская область              2005   2.2
##  9 Костромская область            2005  10  
## 10 Курская область                2005   0.5
## # ... with 702 more rows
```
Теперь можно выполнять любые запросы, комбинирующие год измерения и величину показателя:

```r
reforest_tidy %>% filter(year > 2011 & year < 2016 & value == 0)
## # A tibble: 2 x 3
##   Region             year value
##   <chr>             <int> <dbl>
## 1 Орловская область  2013     0
## 2 Республика Адыгея  2014     0
```
В некоторых случая бывает удобно распределить переменную по нескольким колонкам. В частности, это может быть удобно, если нам надо вычислить разности между годами. Для этого используем `spread()`:

```r
(reforest = reforest_tidy %>% spread(year, value))
## # A tibble: 89 x 9
##    Region          `2005` `2010` `2011` `2012` `2013` `2014` `2015` `2016`
##    <chr>            <dbl>  <dbl>  <dbl>  <dbl>  <dbl>  <dbl>  <dbl>  <dbl>
##  1 Алтайский край    12     10.9   13.5   13.8   13.2   14.3   13.7   12  
##  2 Амурская облас…   33.3   29.8   32.2   33.6   35.5   37.7   28.5   27.7
##  3 Архангельская …   42.6   39.4   48.5   48.8   52.7   60.7   57.6   63.5
##  4 Астраханская о…    0.1    0.1    0      0.1    0.1    0.1    0.1    0  
##  5 Белгородская о…    0.4    0.1    0.3    0.3    0.4    0.4    0.2    0.2
##  6 Брянская облас…    2.9    2.8    3      3.2    3.5    3.3    3.1    3  
##  7 Владимирская о…    4.4    5.3    5.7    6      7.1    5.9    6      4.9
##  8 Волгоградская …    1.6    1.8    2      1.3    1.1    1.2    0.9    0.9
##  9 Вологодская об…   25.6   32.3   44.2   43.3   43.6   44.8   49     52  
## 10 Воронежская об…    1.1    1.1    1.8    3      2.7    2.7    2.6    2.3
## # ... with 79 more rows
```
…
