Визуализация и анализ географических данных на языке R - 3 Таблицы
…
Данные, доступные в пакете dplyr

На рисунке можно видеть перечень наборов данных и их краткие описания. Для загрузки набора данных передайте его название в качестве первого параметра функции data(). Ну-ка, что там с персонажами из Star Wars:

data(starwars, package = 'dplyr')
starwars

# A tibble: 87 × 14
   name     height  mass hair_color skin_color eye_color birth_year sex   gender
   <chr>     <int> <dbl> <chr>      <chr>      <chr>          <dbl> <chr> <chr> 
 1 Luke Sk…    172    77 blond      fair       blue            19   male  mascu…
 2 C-3PO       167    75 <NA>       gold       yellow         112   none  mascu…
 3 R2-D2        96    32 <NA>       white, bl… red             33   none  mascu…
 4 Darth V…    202   136 none       white      yellow          41.9 male  mascu…
 5 Leia Or…    150    49 brown      light      brown           19   fema… femin…
 6 Owen La…    178   120 brown, gr… light      blue            52   male  mascu…
 7 Beru Wh…    165    75 brown      light      blue            47   fema… femin…
 8 R5-D4        97    32 <NA>       white, red red             NA   none  mascu…
 9 Biggs D…    183    84 black      light      brown           24   male  mascu…
10 Obi-Wan…    182    77 auburn, w… fair       blue-gray       57   male  mascu…
# ℹ 77 more rows
# ℹ 5 more variables: homeworld <chr>, species <chr>, films <list>,
#   vehicles <list>, starships <list>
…
Для чтения таких файлов в readr есть функции:

read_fwf() читает файлы с фиксированной шириной столбца, позволяя задавать ширины столбцов (через fwf_widths()) или начальные позиции каждого столбца (через fwf_positions())

read_table() читает наиболее распространенный вариант файла с фиксированной шириной столбца, в котором колонки разделены пробелами. Позиции столбцов определяются автоматически, что очень удобно.

Прочитаем вышеприведенный файл с данными о ветровой энергии:

(wenergy = read_table('data/wind_energy.txt', col_names = c('id', 'lat', 'lon', 'energy50', 'energy110')))

# A tibble: 92 × 5
      id   lat   lon energy50 energy110
   <dbl> <dbl> <dbl>    <dbl>     <dbl>
 1     1  43.5  28       111.      178.
 2     2  43.5  28.5     187.      301.
 3     3  44    28.5     169.      271.
 4     4  44.5  28.5     157.      253.
 5     5  44.5  29       189.      304.
 6     6  45    29       170.      274.
 7     7  45    29.5     199.      320.
 8     8  45.5  29.5     189.      303.
 9     9  46    30       180.      289.
10    10  46    30.5     208.      334.
# ℹ 82 more rows

3.3.3 Таблицы Microsoft Excel

Для чтения таблиц Microsoft Excel, так же как и для текcтовых файлов, существуют множество пакетов, таких как xlsx, openxlsx и readxl.

D настоящем курсе мы будем пользоваться пакетом readxl, поскольку он не имеет внешних зависимостей, а его функции концептуально идентичны функциям пакета readr. Прочтем данные о лесовосстановлении (в тысяч га), полученные из регионального ежегодника Росстата за 2017 год. Эта таблица содержит колонку с названием субъекта и еще 8 колонок с данными по годам. Поскольку в таблице есть пропущенные значения, необходимо определить типы столбцов (в противном случае они могут быть определены как текстовые):

(reforest = read_excel('data/reforest.xlsx', 
                       col_types = c('text', rep('numeric', 8))))

# A tibble: 89 × 9
   Region                `2005` `2010` `2011` `2012` `2013` `2014` `2015` `2016`
   <chr>                  <dbl>  <dbl>  <dbl>  <dbl>  <dbl>  <dbl>  <dbl>  <dbl>
 1 Российская Федерация   812.   812.   860    842.   872.   863    803.   840. 
 2 Центральный федераль…   52.6   62.7   60.9   60.3   70.9   71.2   72.6   77  
 3 Белгородская область     0.4    0.1    0.3    0.3    0.4    0.4    0.2    0.2
 4 Брянская область         2.9    2.8    3      3.2    3.5    3.3    3.1    3  
 5 Владимирская область     4.4    5.3    5.7    6      7.1    5.9    6      4.9
 6 Воронежская область      1.1    1.1    1.8    3      2.7    2.7    2.6    2.3
 7 Ивановская область       2.1    1.6    2.2    3.1    4      4.8    4.6    4.2
 8 Калужская область        2.2    2.3    2.3    2.5    2.4    3.1    3.2    3.2
 9 Костромская область     10     25.2   11     11.8   15.3   13.6   15.1   16.4
10 Курская область          0.5    0.3    0.4    0.6    0.6    0.6    0.5    0.4
# ℹ 79 more rows
…
3.4 Просмотр

Для просмотра фрейма данных в консоли RStudio вы можете использовать несколько опций. Пусть наш фрейм данных называется reforest. Тогда:

print(reforest) — выводит фрейм в консоль целиком (можно написать просто tab в консоли).

head(reforest, n) — отбирает первые \(n\) строк фрейма

tail(reforest, n) — отбирает последние \(n\) строк фрейма

По умолчанию для функций head() и tail() \(n=6\). Обычно этот параметр опускают, поскольку нужно просмотреть только первые несколько строк и шести вполне достаточно. Если вы напечатаете в консоли head(reforest) или tail(reforest), то для выбранных строк будет вызвана функция print(), аналогично выводу всего фрейма:

# ПРОСМОТР ТАБЛИЦЫ
print(reforest)
## # A tibble: 89 × 9
##    Region                `2005` `2010` `2011` `2012` `2013` `2014` `2015` `2016`
##    <chr>                  <dbl>  <dbl>  <dbl>  <dbl>  <dbl>  <dbl>  <dbl>  <dbl>
##  1 Российская Федерация   812.   812.   860    842.   872.   863    803.   840. 
##  2 Центральный федераль…   52.6   62.7   60.9   60.3   70.9   71.2   72.6   77  
##  3 Белгородская область     0.4    0.1    0.3    0.3    0.4    0.4    0.2    0.2
##  4 Брянская область         2.9    2.8    3      3.2    3.5    3.3    3.1    3  
##  5 Владимирская область     4.4    5.3    5.7    6      7.1    5.9    6      4.9
##  6 Воронежская область      1.1    1.1    1.8    3      2.7    2.7    2.6    2.3
##  7 Ивановская область       2.1    1.6    2.2    3.1    4      4.8    4.6    4.2
##  8 Калужская область        2.2    2.3    2.3    2.5    2.4    3.1    3.2    3.2
##  9 Костромская область     10     25.2   11     11.8   15.3   13.6   15.1   16.4
## 10 Курская область          0.5    0.3    0.4    0.6    0.6    0.6    0.5    0.4
## # ℹ 79 more rows
…
group_by()
Группировка строк (для последующего агрегирования)

Как можно видеть, этих функций совсем немного. Дополнительно к ним пакет dplyr содержит еще множество вспомогательных функций, которые применяются при выполнении основных манипуляций.

Рассмотрим применение этих функций на примере работы с таблицей по восстановлению лесного фонда в регионах России. Для начала переименуем столбцы с годами, чтобы их названия начинались с буквы y:

old_names = colnames(reforest)
colnames(reforest) = c(old_names[1], paste('y', old_names[2:9], sep = ''))

Начнем с выбора нужных переменных, используя select(). Оставим только название региона и данные за 2010 и 2015 гг:

(rdf = select(reforest, Region, y2010, y2015))

# A tibble: 89 × 3
   Region                        y2010 y2015
   <chr>                         <dbl> <dbl>
 1 Российская Федерация          812.  803. 
 2 Центральный федеральный округ  62.7  72.6
 3 Белгородская область            0.1   0.2
 4 Брянская область                2.8   3.1
 5 Владимирская область            5.3   6  
 6 Воронежская область             1.1   2.6
 7 Ивановская область              1.6   4.6
 8 Калужская область               2.3   3.2
 9 Костромская область            25.2  15.1
10 Курская область                 0.3   0.5
# ℹ 79 more rows

Ту же самую задачу можно решить от противного — указать со знаком - те столбцы, которые надо убрать:

(rdf = select(reforest, -y2005, -y2011:-y2014, -y2016))

# A tibble: 89 × 3
   Region                        y2010 y2015
   <chr>                         <dbl> <dbl>
 1 Российская Федерация          812.  803. 
 2 Центральный федеральный округ  62.7  72.6
 3 Белгородская область            0.1   0.2
 4 Брянская область                2.8   3.1
 5 Владимирская область            5.3   6  
 6 Воронежская область             1.1   2.6
 7 Ивановская область              1.6   4.6
 8 Калужская область               2.3   3.2
 9 Костромская область            25.2  15.1
10 Курская область                 0.3   0.5
# ℹ 79 more rows

Обратите внимание на то, что можно указывать еще и диапазоны названий столбцов, если они идут друг за другом.

Названия столбцов в функциях dplyr указываются без кавычек, что позволяет сделат код проще и читаемее. Этот прием называется квотацией, с ним мы познакомимся подробнее в следующей лекции.

Чтобы осуществить фильтрацию, необходимо задать условие, накладываемое на строки. Текущая таблица содержит данные по субъектам, федеральным округам и России в целом. Поскольку данные по округам и стране являются избыточными (их можно получить путем агрегирования данных по субъектам), выполним фильтрацию таблицы, убрав строки, в которых содержатся слова Федерация и федеральный округ. Для этого используем функцию str_detect() из пакета stringr, который также входит в tidyverse:

flt = !stringr::str_detect(rdf$Region, 'Федерация|федеральный округ') # готовим фильтр для строк
(regdf = dplyr::filter(rdf, flt)) # применяем фильтр

# A tibble: 80 × 3
   Region               y2010 y2015
   <chr>                <dbl> <dbl>
 1 Белгородская область   0.1   0.2
 2 Брянская область       2.8   3.1
 3 Владимирская область   5.3   6  
 4 Воронежская область    1.1   2.6
 5 Ивановская область     1.6   4.6
 6 Калужская область      2.3   3.2
 7 Костромская область   25.2  15.1
 8 Курская область        0.3   0.5
 9 Липецкая область       0.4   1.1
10 Московская область     2.7   8.9
# ℹ 70 more rows
…
dplyr::filter(regdf, y2015 > 50)

# A tibble: 4 × 3
  Region                y2010 y2015
  <chr>                 <dbl> <dbl>
1 Архангельская область  39.4  57.6
2 Красноярский край      49    50.4
3 Иркутская область      80.4 117. 
4 Хабаровский край       70.2  59.6

Для сортировки таблицы посредством arrange() необходимо указать столбцы, по которым будет осуществлено упорядочение строк. Чаще всего это один столбец, например y2015:

arrange(regdf, y2015) # по возрастанию

# A tibble: 80 × 3
   Region                              y2010 y2015
   <chr>                               <dbl> <dbl>
 1 Орловская область                     0     0.1
 2 Астраханская область                  0.1   0.1
 3 Кабардино-Балкарская Республика       0.1   0.1
 4 Карачаево-Черкесская Республика       0.2   0.1
 5 Республика Северная Осетия – Алания  NA     0.1
 6 Ставропольский край                   0.4   0.1
 7 Белгородская область                  0.1   0.2
 8 Тульская область                      0.1   0.2
 9 Магаданская область                   2.6   0.4
10 Курская область                       0.3   0.5
# ℹ 70 more rows

arrange(regdf, desc(y2015)) # по убыванию

# A tibble: 80 × 3
   Region                y2010 y2015
   <chr>                 <dbl> <dbl>
 1 Иркутская область      80.4 117. 
 2 Хабаровский край       70.2  59.6
 3 Архангельская область  39.4  57.6
 4 Красноярский край      49    50.4
 5 Вологодская область    32.3  49  
 6 Республика Коми        33.3  36.7
 7 Пермский край          22.9  32.5
 8 Кировская область      26    31.1
 9 Амурская область       29.8  28.5
10 Томская область         9.3  25.6
# ℹ 70 more rows

Добавление новых переменных (столбцов) осуществляется посредством mutate(). Например, определим, как изменился объем лесовосстановительных работ в 2015 году по сравнению с 2010 годом:

(regdf = mutate(regdf, delta = y2015 - y2010))

# A tibble: 80 × 4
   Region               y2010 y2015   delta
   <chr>                <dbl> <dbl>   <dbl>
 1 Белгородская область   0.1   0.2   0.1  
 2 Брянская область       2.8   3.1   0.300
 3 Владимирская область   5.3   6     0.7  
 4 Воронежская область    1.1   2.6   1.5  
 5 Ивановская область     1.6   4.6   3    
 6 Калужская область      2.3   3.2   0.9  
 7 Костромская область   25.2  15.1 -10.1  
 8 Курская область        0.3   0.5   0.2  
 9 Липецкая область       0.4   1.1   0.7  
10 Московская область     2.7   8.9   6.2  
# ℹ 70 more rows

Существует редко используемая разновидность мутирования, при которой сохраняются только столбцы, указанные в параметрах. Она называется transmute() — по сути это комбинация mutate() и select(). Если вы хотите просто сохранить какой-то из столбцов, то укажите его через оператор равенства:

transmute(regdf, Region = Region, delta = y2015 - y2010) # сохраняем только Region и delta

# A tibble: 80 × 2
   Region                 delta
   <chr>                  <dbl>
 1 Белгородская область   0.1  
 2 Брянская область       0.300
 3 Владимирская область   0.7  
 4 Воронежская область    1.5  
 5 Ивановская область     3    
 6 Калужская область      0.9  
 7 Костромская область  -10.1  
 8 Курская область        0.2  
 9 Липецкая область       0.7  
10 Московская область     6.2  
# ℹ 70 more rows
…
Дополнить каждую строку региона информацией о принадлежности к федеральному округу

Сгруппировать субъекты по федеральным округам — Отсортировать каждую группу по убыванию значения поля

Взять первую строку в каждой группе

Объединить строки в одну таблицу

Для начала вернемся на этап, когда мы избавлялись от федеральных округов в таблице. Поскольку в исходной таблице данные были упорядочены по округам, эту информацию можно использовать для создания нового столбца с названием округа каждого субъекта. В этом нам поможет функция fill() из пакета tidyr:

flt2 = stringr::str_detect(rdf$Region, 'федеральный округ') # ищем округа
(rdf2 = mutate(rdf, okrug = if_else(flt2, Region, NA))) # перенесем названия округов в новый столбец

# A tibble: 89 × 4
   Region                        y2010 y2015 okrug                        
   <chr>                         <dbl> <dbl> <chr>                        
 1 Российская Федерация          812.  803.  <NA>                         
 2 Центральный федеральный округ  62.7  72.6 Центральный федеральный округ
 3 Белгородская область            0.1   0.2 <NA>                         
 4 Брянская область                2.8   3.1 <NA>                         
 5 Владимирская область            5.3   6   <NA>                         
 6 Воронежская область             1.1   2.6 <NA>                         
 7 Ивановская область              1.6   4.6 <NA>                         
 8 Калужская область               2.3   3.2 <NA>                         
 9 Костромская область            25.2  15.1 <NA>                         
10 Курская область                 0.3   0.5 <NA>                         
# ℹ 79 more rows

(rdf2 = tidyr::fill(rdf2, okrug)) # заполним все пустые строчки предыдущим значением

# A tibble: 89 × 4
   Region                        y2010 y2015 okrug                        
   <chr>                         <dbl> <dbl> <chr>                        
 1 Российская Федерация          812.  803.  <NA>                         
 2 Центральный федеральный округ  62.7  72.6 Центральный федеральный округ
 3 Белгородская область            0.1   0.2 Центральный федеральный округ
 4 Брянская область                2.8   3.1 Центральный федеральный округ
 5 Владимирская область            5.3   6   Центральный федеральный округ
 6 Воронежская область             1.1   2.6 Центральный федеральный округ
 7 Ивановская область              1.6   4.6 Центральный федеральный округ
 8 Калужская область               2.3   3.2 Центральный федеральный округ
 9 Костромская область            25.2  15.1 Центральный федеральный округ
10 Курская область                 0.3   0.5 Центральный федеральный округ
# ℹ 79 more rows

(regdf = dplyr::filter(rdf2, flt)) # оставим только регионы

# A tibble: 80 × 4
   Region               y2010 y2015 okrug                        
   <chr>                <dbl> <dbl> <chr>                        
 1 Белгородская область   0.1   0.2 Центральный федеральный округ
 2 Брянская область       2.8   3.1 Центральный федеральный округ
 3 Владимирская область   5.3   6   Центральный федеральный округ
 4 Воронежская область    1.1   2.6 Центральный федеральный округ
 5 Ивановская область     1.6   4.6 Центральный федеральный округ
 6 Калужская область      2.3   3.2 Центральный федеральный округ
 7 Костромская область   25.2  15.1 Центральный федеральный округ
 8 Курская область        0.3   0.5 Центральный федеральный округ
 9 Липецкая область       0.4   1.1 Центральный федеральный округ
10 Московская область     2.7   8.9 Центральный федеральный округ
# ℹ 70 more rows
…
cols — перечисление столбцов, которые необходимо подвергнуть преобразованию

names_to — имя нового столбца, который будет хранить ключи (бывшие названия столбцов)

values_to — имя нового столбца, который будет хранить значения

Рассмотрим на примере таблицы reforest приведение к аккуратному виду:

(reforest_tidy = reforest |> 
    pivot_longer(cols = y2005:y2016, 
                 names_to = 'year', 
                 values_to = 'value'))

# A tibble: 712 × 3
   Region                        year  value
   <chr>                         <chr> <dbl>
 1 Российская Федерация          y2005 812. 
 2 Российская Федерация          y2010 812. 
 3 Российская Федерация          y2011 860  
 4 Российская Федерация          y2012 842. 
 5 Российская Федерация          y2013 872. 
 6 Российская Федерация          y2014 863  
 7 Российская Федерация          y2015 803. 
 8 Российская Федерация          y2016 840. 
 9 Центральный федеральный округ y2005  52.6
10 Центральный федеральный округ y2010  62.7
# ℹ 702 more rows

Обратите внимание на то, что параметры names_to и values_to надо передавать как строки, поскольку они содержат еще не существующие объекты.

Полученный результат еще не вполне пригоден для анализа, поскольку в переменной year мы имеем строковые значения, начинающиеся с y. Чтобы избавиться от этого префикса, можно при вызове pivot_longer() указать параметр names_prefix. Поскольку по умолчанию ключи конвертируются в строковый столбец, а год — это целочисленное значение, следует дополнительно указать параметр names_ptypes. Помимо этого, конвертации подвергаются все столбцы, кроме Region — это означает, что можно пойти от обратного в параметре cols. Резюмируя перечисленные соображения, вышеприведенный вызов можно оптимизировать следующим образом:

(reforest_tidy2 = reforest |> 
    pivot_longer(cols = -Region, 
                 names_to = 'year',
                 names_prefix = 'y',
                 names_transform = list(year = as.integer),
                 values_to = 'value'))

# A tibble: 712 × 3
   Region                         year value
   <chr>                         <int> <dbl>
 1 Российская Федерация           2005 812. 
 2 Российская Федерация           2010 812. 
 3 Российская Федерация           2011 860  
 4 Российская Федерация           2012 842. 
 5 Российская Федерация           2013 872. 
 6 Российская Федерация           2014 863  
 7 Российская Федерация           2015 803. 
 8 Российская Федерация           2016 840. 
 9 Центральный федеральный округ  2005  52.6
10 Центральный федеральный округ  2010  62.7
# ℹ 702 more rows

Если по какой-то причине вам уже досталась таблица, в которой в ячейках сцеплены несколько сущностей, разделить их можно с помощью функции separate(). Вышеприведенный тиббл reforest_tidy можно “довести до ума” последовательным вызовом separate(), select() и mutate():

(reforest_tidy = reforest_tidy |> 
  separate(year, c('y', 'year'), 1) |> 
  select(-y) |> 
  mutate(year = as.integer(year)))

# A tibble: 712 × 3
   Region                         year value
   <chr>                         <int> <dbl>
 1 Российская Федерация           2005 812. 
 2 Российская Федерация           2010 812. 
 3 Российская Федерация           2011 860  
 4 Российская Федерация           2012 842. 
 5 Российская Федерация           2013 872. 
 6 Российская Федерация           2014 863  
 7 Российская Федерация           2015 803. 
 8 Российская Федерация           2016 840. 
 9 Центральный федеральный округ  2005  52.6
10 Центральный федеральный округ  2010  62.7
# ℹ 702 more rows
…
