…
## Просмотр {#tables_view}

Для просмотра фрейма данных в консоли __RStudio__ вы можете использовать несколько опций. Пусть наш фрейм данных называется `reforest`. Тогда:

1. `print(reforest)` --- выводит фрейм в консоль целиком (можно написать просто `tab` в консоли).
2. `head(reforest, n)` --- отбирает первые $n$ строк фрейма 
3. `tail(reforest, n)` --- отбирает последние $n$ строк фрейма

По умолчанию для функций `head()` и `tail()` $n=6$. Обычно этот параметр опускают, поскольку нужно просмотреть только первые несколько строк и шести вполне достаточно. Если вы напечатаете в консоли `head(reforest)` или `tail(reforest)`, то для выбранных строк будет вызвана функция `print()`, аналогично выводу всего фрейма:

```r
# ПРОСМОТР ТАБЛИЦЫ
print(reforest)
## # A tibble: 89 x 9
##    Region          `2005` `2010` `2011` `2012` `2013` `2014` `2015` `2016`
##    <chr>            <dbl>  <dbl>  <dbl>  <dbl>  <dbl>  <dbl>  <dbl>  <dbl>
##  1 Российская Фед…  812.   812.   860    842.   872.   863    803.   840. 
##  2 Центральный фе…   52.6   62.7   60.9   60.3   70.9   71.2   72.6   77  
##  3 Белгородская о…    0.4    0.1    0.3    0.3    0.4    0.4    0.2    0.2
##  4 Брянская облас…    2.9    2.8    3      3.2    3.5    3.3    3.1    3  
##  5 Владимирская о…    4.4    5.3    5.7    6      7.1    5.9    6      4.9
##  6 Воронежская об…    1.1    1.1    1.8    3      2.7    2.7    2.6    2.3
##  7 Ивановская обл…    2.1    1.6    2.2    3.1    4      4.8    4.6    4.2
##  8 Калужская обла…    2.2    2.3    2.3    2.5    2.4    3.1    3.2    3.2
##  9 Костромская об…   10     25.2   11     11.8   15.3   13.6   15.1   16.4
## 10 Курская область    0.5    0.3    0.4    0.6    0.6    0.6    0.5    0.4
## # ... with 79 more rows
…
