Визуализация и анализ географических данных на языке R - 6 Продвинутая графика
…
trades = lapply(tables, function(X) { # прочтем несколько таблиц в список
  get_eurostat(X) |> filter(partner %in% countries) |> label_eurostat()
}) |> 
  bind_rows() |> # объединим прочитанные таблицы в одну
  select(-geo) |> # убираем столбец с территорией торговли, т.к. там только Евросоюз
  filter(str_detect(indic_et, 'Exports in|Imports in')) |> # оставим только экспорт и импорт
  pivot_wider(names_from = indic_et, values_from = values) |>  # вынесем данные по экспорту и импорту в отдельные переменные
  rename(export = `Exports in million of ECU/EURO`, # дадим им краткие названия
         import = `Imports in million of ECU/EURO`) |> 
  mutate(partner = as.factor(partner))

trades # посмотрим, что получилось

# A tibble: 25,710 × 5
   sitc06                   partner              time       export import
   <chr>                    <fct>                <date>      <dbl>  <dbl>
 1 Food, drinks and tobacco Andorra              2022-01-01  340.     0.8
 2 Food, drinks and tobacco United Arab Emirates 2022-01-01 3112.    64.3
 3 Food, drinks and tobacco Afghanistan          2022-01-01   67.2   15.2
 4 Food, drinks and tobacco Antigua and Barbuda  2022-01-01   17.2    0.7
 5 Food, drinks and tobacco Anguilla (UK)        2022-01-01    1.3    0  
 6 Food, drinks and tobacco Albania              2022-01-01  734.   234. 
 7 Food, drinks and tobacco Armenia              2022-01-01  171.    18.6
 8 Food, drinks and tobacco Angola               2022-01-01  642.    50.4
 9 Food, drinks and tobacco Antarctica           2022-01-01    0.3    0  
10 Food, drinks and tobacco Argentina            2022-01-01  191.  6230. 
# ℹ 25,700 more rows
…
