Визуализация и анализ географических данных на языке R - 7 Основы статистики
…
7.2.1.2 Пакет googlesheets4

Доступ к облачным таблицам — удобный способ работы с табличными данными, который позволяет избавиться от манипуляций с локальными файлами. Свои данные вы тоже можете хранить в таблицах Google. Если таблицы регулярно обновляются держателем данных, загрузка их из облачного хранилища будет гарантировать вам актуальность анализируемой информации. Ограниченем такого режима работы является то, что для доступа к данным вам нужен Интернет.

Пакет googlesheets4 открывает доступ к таблицам Google. С кратким руководством по использованию пакета вы можете ознакомиться тут. Данный пакет использует версию 4.x Google Sheets API (отсюда цифра 4 в навании) и рекомендуется к использованию вместо устаревшего пакета googlesheets.

Пакет googlesheets4 работает в связке с пакетом googledrive, обеспечивающим общие методы доступа к Google Drive. Для загрузки достаточно вызвать функцию read_sheet(), передав ей в качестве аргумента ключ таблицы Google (см. предыдущий раздел):

В качестве примера возьмем данные по ВВП на душу населения:

gdpdf = read_sheet('1cxtzRRN6ldjSGoDzFHkB8vqPavq1iOTMElGewQnmHgg')
gdpdf

# A tibble: 260 × 256
   GDP per capita PPP, with p…¹ `1764` `1765` `1766` `1767` `1768` `1769` `1770`
   <chr>                         <dbl>  <dbl>  <dbl>  <dbl>  <dbl>  <dbl>  <dbl>
 1 Abkhazia                         NA     NA     NA     NA     NA     NA     NA
 2 Afghanistan                      NA     NA     NA     NA     NA     NA     NA
 3 Akrotiri and Dhekelia            NA     NA     NA     NA     NA     NA     NA
 4 Albania                          NA     NA     NA     NA     NA     NA     NA
 5 Algeria                          NA     NA     NA     NA     NA     NA     NA
 6 American Samoa                   NA     NA     NA     NA     NA     NA     NA
 7 Andorra                          NA     NA     NA     NA     NA     NA     NA
 8 Angola                           NA     NA     NA     NA     NA     NA     NA
 9 Anguilla                         NA     NA     NA     NA     NA     NA     NA
10 Antigua and Barbuda              NA     NA     NA     NA     NA     NA     NA
# ℹ 250 more rows
# ℹ abbreviated name: ¹​`GDP per capita PPP, with projections`
# ℹ 248 more variables: `1771` <dbl>, `1772` <dbl>, `1773` <dbl>, `1774` <dbl>,
#   `1775` <dbl>, `1776` <dbl>, `1777` <dbl>, `1778` <dbl>, `1779` <dbl>,
#   `1780` <dbl>, `1781` <dbl>, `1782` <dbl>, `1783` <dbl>, `1784` <dbl>,
#   `1785` <dbl>, `1786` <dbl>, `1787` <dbl>, `1788` <dbl>, `1789` <dbl>,
#   `1790` <dbl>, `1791` <dbl>, `1792` <dbl>, `1793` <dbl>, `1794` <dbl>, …

Аналогично рассмотрим показатель ожидаемой продолжительности жизни:

lifedf = read_sheet('1H3nzTwbn8z4lJ5gJ_WfDgCeGEXK3PVGcNjQ_U5og8eo')
lifedf

# A tibble: 260 × 218
   `Life expectancy`     `1800` `1801` `1802` `1803` `1804` `1805` `1806` `1807`
   <chr>                  <dbl>  <dbl>  <dbl>  <dbl>  <dbl>  <dbl>  <dbl>  <dbl>
 1 Abkhazia                NA     NA     NA     NA     NA     NA     NA     NA  
 2 Afghanistan             28.2   28.2   28.2   28.2   28.2   28.2   28.2   28.1
 3 Akrotiri and Dhekelia   NA     NA     NA     NA     NA     NA     NA     NA  
 4 Albania                 35.4   35.4   35.4   35.4   35.4   35.4   35.4   35.4
 5 Algeria                 28.8   28.8   28.8   28.8   28.8   28.8   28.8   28.8
 6 American Samoa          NA     NA     NA     NA     NA     NA     NA     NA  
 7 Andorra                 NA     NA     NA     NA     NA     NA     NA     NA  
 8 Angola                  27.0   27.0   27.0   27.0   27.0   27.0   27.0   27.0
 9 Anguilla                NA     NA     NA     NA     NA     NA     NA     NA  
10 Antigua and Barbuda     33.5   33.5   33.5   33.5   33.5   33.5   33.5   33.5
# ℹ 250 more rows
# ℹ 209 more variables: `1808` <dbl>, `1809` <dbl>, `1810` <dbl>, `1811` <dbl>,
#   `1812` <dbl>, `1813` <dbl>, `1814` <dbl>, `1815` <dbl>, `1816` <dbl>,
#   `1817` <dbl>, `1818` <dbl>, `1819` <dbl>, `1820` <dbl>, `1821` <dbl>,
#   `1822` <dbl>, `1823` <dbl>, `1824` <dbl>, `1825` <dbl>, `1826` <dbl>,
#   `1827` <dbl>, `1828` <dbl>, `1829` <dbl>, `1830` <dbl>, `1831` <dbl>,
#   `1832` <dbl>, `1833` <dbl>, `1834` <dbl>, `1835` <dbl>, `1836` <dbl>, …
…
Приведем выгруженные ранее данные ВВП к аккуратному виду, избавившись от множества столбцов с годом измерения. Сразу получим данные за 2015 год для анализа:

gdpdf_tidy = gdpdf %>% 
   pivot_longer(cols = `1764`:`2018`, 
                names_to = 'year', 
                values_to = 'gdp',
                names_transform = list(year = as.integer)) %>% 
   rename(Country = 1)

gdpdf15 = filter(gdpdf_tidy, year == 2015)

gdpdf15

# A tibble: 260 × 3
   Country                year    gdp
   <chr>                 <int>  <dbl>
 1 Abkhazia               2015    NA 
 2 Afghanistan            2015  1418.
 3 Akrotiri and Dhekelia  2015    NA 
 4 Albania                2015  7343.
 5 Algeria                2015  6797.
 6 American Samoa         2015    NA 
 7 Andorra                2015    NA 
 8 Angola                 2015  6512.
 9 Anguilla               2015    NA 
10 Antigua and Barbuda    2015 14884.
# ℹ 250 more rows
…
При построении гистограмм и оценке плотности распределения мы допустили ошибку: приняли, что все измерения являются равнозначными. Однако в данном случае это не так. Население Люксембурга и Пакистана отличается на два порядка — это означает, что Пакистан должен иметь соответственно больший вес при построении гистограммы. Для учета этой характеристики подгрузим из Gapminder данные по численности населения и присоединим их к нашим таблицам по ВВП и продолжительности жизни:

popdf_tidy = 
  read_sheet('1IbDM8z5XicMIXgr93FPwjgwoTTKMuyLfzU6cQrGZzH8') %>% # численность населения
  pivot_longer(cols = `1800`:`2015`, 
               names_to = 'year', 
               values_to = 'pop',
               names_transform = list(year = as.integer)) %>% 
  rename(Country = 1)

(tab = gdpdf_tidy %>% 
    inner_join(lifedf_tidy) %>% 
    inner_join(popdf_tidy))

# A tibble: 19,359 × 5
   Country   year   gdp lifexp   pop
   <chr>    <int> <dbl>  <dbl> <dbl>
 1 Abkhazia  1800    NA     NA    NA
 2 Abkhazia  1810    NA     NA    NA
 3 Abkhazia  1820    NA     NA    NA
 4 Abkhazia  1830    NA     NA    NA
 5 Abkhazia  1840    NA     NA    NA
 6 Abkhazia  1850    NA     NA    NA
 7 Abkhazia  1860    NA     NA    NA
 8 Abkhazia  1870    NA     NA    NA
 9 Abkhazia  1880    NA     NA    NA
10 Abkhazia  1890    NA     NA    NA
# ℹ 19,349 more rows
…
Присоединим эти данные к исходной таблице:

(tabreg = tab %>% 
  left_join(countries) %>% 
  dplyr::filter(year == 2015) %>% 
  drop_na())

# A tibble: 172 × 6
   Country              year    gdp lifexp      pop Region            
   <chr>               <int>  <dbl>  <dbl>    <dbl> <chr>             
 1 Afghanistan          2015  1418.   53.8 32526562 asia_west         
 2 Albania              2015  7343.   78    2896679 europe_east       
 3 Algeria              2015  6797.   76.4 39666519 africa_north      
 4 Angola               2015  6512.   59.6 25021974 africa_sub_saharan
 5 Antigua and Barbuda  2015 14884.   76.4    91818 america_north     
 6 Argentina            2015 16640.   76.5 43416755 america_south     
 7 Armenia              2015  5561.   74.7  3017712 europe_east       
 8 Australia            2015 38085.   82.3 23968973 east_asia_pacific 
 9 Austria              2015 37811.   81.3  8544586 europe_west       
10 Azerbaijan           2015 10475.   72.9  9753968 europe_east       
# ℹ 162 more rows
…
