…
('1cxtzRRN6ldjSGoDzFHkB8vqPavq1iOTMElGewQnmHgg' %>% ### ВВП на душу населения
  as_id() %>% # преобразуем идентификатор в класс drive_id чтобы отличать его от пути
  drive_get() %>% 
  read_sheet() -> gdpdf) # выгружаем данные по ВВП на душу населения и сохраняем в переменную incdf
## Using an auto-discovered, cached token.
## To suppress this message, modify your code or options to clearly consent to the use of a cached token.
## See gargle's "Non-interactive auth" vignette for more details:
## https://gargle.r-lib.org/articles/non-interactive-auth.html
## The googledrive package is using a cached token for iamste@yandex.ru.
## Using an auto-discovered, cached token.
## To suppress this message, modify your code or options to clearly consent to the use of a cached token.
## See gargle's "Non-interactive auth" vignette for more details:
## https://gargle.r-lib.org/articles/non-interactive-auth.html
## The googlesheets4 package is using a cached token for iamste@yandex.ru.
## # A tibble: 260 x 256
##    `GDP per capita… `1764` `1765` `1766` `1767` `1768` `1769` `1770` `1771`
##    <chr>             <dbl>  <dbl>  <dbl>  <dbl>  <dbl>  <dbl>  <dbl>  <dbl>
##  1 Abkhazia             NA     NA     NA     NA     NA     NA     NA     NA
##  2 Afghanistan          NA     NA     NA     NA     NA     NA     NA     NA
##  3 Akrotiri and Dh…     NA     NA     NA     NA     NA     NA     NA     NA
##  4 Albania              NA     NA     NA     NA     NA     NA     NA     NA
##  5 Algeria              NA     NA     NA     NA     NA     NA     NA     NA
##  6 American Samoa       NA     NA     NA     NA     NA     NA     NA     NA
##  7 Andorra              NA     NA     NA     NA     NA     NA     NA     NA
##  8 Angola               NA     NA     NA     NA     NA     NA     NA     NA
##  9 Anguilla             NA     NA     NA     NA     NA     NA     NA     NA
## 10 Antigua and Bar…     NA     NA     NA     NA     NA     NA     NA     NA
## # … with 250 more rows, and 247 more variables: `1772` <dbl>,
## #   `1773` <dbl>, `1774` <dbl>, `1775` <dbl>, `1776` <dbl>, `1777` <dbl>,
## #   `1778` <dbl>, `1779` <dbl>, `1780` <dbl>, `1781` <dbl>, `1782` <dbl>,
## #   `1783` <dbl>, `1784` <dbl>, `1785` <dbl>, `1786` <dbl>, `1787` <dbl>,
## #   `1788` <dbl>, `1789` <dbl>, `1790` <dbl>, `1791` <dbl>, `1792` <dbl>,
## #   `1793` <dbl>, `1794` <dbl>, `1795` <dbl>, `1796` <dbl>, `1797` <dbl>,
## #   `1798` <dbl>, `1799` <dbl>, `1800` <dbl>, `1801` <dbl>, `1802` <dbl>,
## #   `1803` <dbl>, `1804` <dbl>, `1805` <dbl>, `1806` <dbl>, `1807` <dbl>,
## #   `1808` <dbl>, `1809` <dbl>, `1810` <dbl>, `1811` <dbl>, `1812` <dbl>,
…
Для дальнейшей работы целесообразно привести данные к аккуратному виду, избавившись от множества столбцов с годом измерения. Сразу получим данные за 2015 год для анализа:

```r
(gdpdf_tidy = gdpdf %>% 
   gather(year, gdp, `1764`:`2018`) %>% 
   rename(Country = 1))
## # A tibble: 66,300 x 3
##    Country               year    gdp
##    <chr>                 <chr> <dbl>
##  1 Abkhazia              1764     NA
##  2 Afghanistan           1764     NA
##  3 Akrotiri and Dhekelia 1764     NA
##  4 Albania               1764     NA
##  5 Algeria               1764     NA
##  6 American Samoa        1764     NA
##  7 Andorra               1764     NA
##  8 Angola                1764     NA
##  9 Anguilla              1764     NA
## 10 Antigua and Barbuda   1764     NA
## # … with 66,290 more rows
…
```r
ggplot(gdpdf15, aes(x = gdp)) + 
  geom_histogram(binwidth = 5000, color = 'black', fill = 'steelblue', size = 0.2)
```

<img src="07-StatisticsBasic_files/figure-html/unnamed-chunk-5-1.png" width="672" />

Аналогично рассмотрим показатель ожидаемой продолжительности жизни:

```r
('1H3nzTwbn8z4lJ5gJ_WfDgCeGEXK3PVGcNjQ_U5og8eo' %>% # продолжительность жизни
  as_id() %>% # преобразуем идентификатор в класс drive_id чтобы отличать его от пути
  drive_get() %>% 
  read_sheet()  -> lifedf) # выгружаем данные по ВВП на душу населения и сохраняем в переменную lifedf
## # A tibble: 260 x 218
##    `Life expectanc… `1800` `1801` `1802` `1803` `1804` `1805` `1806` `1807`
##    <chr>             <dbl>  <dbl>  <dbl>  <dbl>  <dbl>  <dbl>  <dbl>  <dbl>
##  1 Abkhazia           NA     NA     NA     NA     NA     NA     NA     NA  
##  2 Afghanistan        28.2   28.2   28.2   28.2   28.2   28.2   28.2   28.1
##  3 Akrotiri and Dh…   NA     NA     NA     NA     NA     NA     NA     NA  
##  4 Albania            35.4   35.4   35.4   35.4   35.4   35.4   35.4   35.4
##  5 Algeria            28.8   28.8   28.8   28.8   28.8   28.8   28.8   28.8
##  6 American Samoa     NA     NA     NA     NA     NA     NA     NA     NA  
##  7 Andorra            NA     NA     NA     NA     NA     NA     NA     NA  
##  8 Angola             27.0   27.0   27.0   27.0   27.0   27.0   27.0   27.0
##  9 Anguilla           NA     NA     NA     NA     NA     NA     NA     NA  
## 10 Antigua and Bar…   33.5   33.5   33.5   33.5   33.5   33.5   33.5   33.5
## # … with 250 more rows, and 209 more variables: `1808` <dbl>,
## #   `1809` <dbl>, `1810` <dbl>, `1811` <dbl>, `1812` <dbl>, `1813` <dbl>,
## #   `1814` <dbl>, `1815` <dbl>, `1816` <dbl>, `1817` <dbl>, `1818` <dbl>,
## #   `1819` <dbl>, `1820` <dbl>, `1821` <dbl>, `1822` <dbl>, `1823` <dbl>,
## #   `1824` <dbl>, `1825` <dbl>, `1826` <dbl>, `1827` <dbl>, `1828` <dbl>,
## #   `1829` <dbl>, `1830` <dbl>, `1831` <dbl>, `1832` <dbl>, `1833` <dbl>,
## #   `1834` <dbl>, `1835` <dbl>, `1836` <dbl>, `1837` <dbl>, `1838` <dbl>,
## #   `1839` <dbl>, `1840` <dbl>, `1841` <dbl>, `1842` <dbl>, `1843` <dbl>,
## #   `1844` <dbl>, `1845` <dbl>, `1846` <dbl>, `1847` <dbl>, `1848` <dbl>,
…
<img src="07-StatisticsBasic_files/figure-html/unnamed-chunk-9-2.png" width="672" />

При построении гистограмм и оценке плотности распределения мы допустили ошибку: приняли, что все измерения являются равнозначными. Однако в данном случае это не так. Население Люксембурга и Пакистана отличается на два порядка --- это означает, что Пакистан должен иметь соответственно больший вес при построении гистограммы. Для учета этой характеристики подгрузим из __Gapminder__ данные по численности населения и присоединим их к нашим таблицам по ВВП и продолжительности жизни:

```r
'1IbDM8z5XicMIXgr93FPwjgwoTTKMuyLfzU6cQrGZzH8' %>% # численность населения
  as_id() %>% # преобразуем идентификатор в класс drive_id чтобы отличать его от пути
  drive_get() %>% 
  read_sheet() %>% # первый лист
  pivot_longer(cols = `1800`:`2015`, names_to = 'year', values_to = 'pop') %>% 
  rename(Country = 1) -> popdf_tidy

(tab = gdpdf_tidy %>% inner_join(lifedf_tidy) %>% inner_join(popdf_tidy))
## # A tibble: 19,359 x 5
##    Country               year    gdp lifexp     pop
##    <chr>                 <chr> <dbl>  <dbl>   <dbl>
##  1 Abkhazia              1800    NA    NA        NA
##  2 Afghanistan           1800   472.   28.2 3280000
##  3 Akrotiri and Dhekelia 1800    NA    NA        NA
##  4 Albania               1800   601.   35.4  410445
##  5 Algeria               1800   766.   28.8 2503218
##  6 American Samoa        1800   674.   NA      8170
##  7 Andorra               1800  1260.   NA      2654
##  8 Angola                1800   360.   27.0 1567028
##  9 Anguilla              1800   776.   NA      2025
## 10 Antigua and Barbuda   1800   538.   33.5   37000
## # … with 19,349 more rows
```
…
<img src="07-StatisticsBasic_files/figure-html/unnamed-chunk-13-1.png" width="672" />

Присоединим эти данные к исходной таблице:

```r
(tabreg = tab %>% 
  left_join(countries) %>% 
  filter(year == 2015) %>% 
  drop_na())
## # A tibble: 172 x 6
##    Country             year     gdp lifexp      pop Region            
##    <chr>               <chr>  <dbl>  <dbl>    <dbl> <chr>             
##  1 Afghanistan         2015   1418.   53.8 32526562 asia_west         
##  2 Albania             2015   7343.   78    2896679 europe_east       
##  3 Algeria             2015   6797.   76.4 39666519 africa_north      
##  4 Angola              2015   6512.   59.6 25021974 africa_sub_saharan
##  5 Antigua and Barbuda 2015  14884.   76.4    91818 america_north     
##  6 Argentina           2015  16640.   76.5 43416755 america_south     
##  7 Armenia             2015   5561.   74.7  3017712 europe_east       
##  8 Australia           2015  38085.   82.3 23968973 east_asia_pacific 
##  9 Austria             2015  37811.   81.3  8544586 europe_west       
## 10 Azerbaijan          2015  10475.   72.9  9753968 europe_east       
## # … with 162 more rows
```
…
