…
Загрузим данные по всем обсерваториям из текстовых файлов в папке _bound_:

```r
files = paste('data/bound', list.files('data/bound', "*.txt"), sep = '/')

(tab = lapply(files, function(X) {
    readr::read_table(X, col_names = params$Обозначение)
  }) %>% 
  bind_rows() %>% 
  left_join(obs, by = c('INDEX' = 'Индекс'))) # присоединим информацию о названиях станций
## # A tibble: 77,073 x 26
##    INDEX  GGGG    MM    HH     Z    MP    SP    NP    MT    ST    NT    MD
##    <dbl> <dbl> <dbl> <dbl> <dbl> <dbl> <dbl> <dbl> <dbl> <dbl> <dbl> <dbl>
##  1 20674  2007     1     0  2000  7629    78    27  -187    35    27    53
##  2 20674  2007     1     0  1900  7732    79    27  -182    36    27    52
##  3 20674  2007     1     0  1800  7836    79    27  -178    36    27    51
##  4 20674  2007     1     0  1700  7942    80    27  -173    36    27    49
##  5 20674  2007     1     0  1600  8048    81    27  -168    36    27    48
##  6 20674  2007     1     0  1500  8157    81    27  -164    38    27    47
##  7 20674  2007     1     0  1400  8266    82    27  -160    39    27    45
##  8 20674  2007     1     0  1300  8376    82    27  -156    39    27    43
##  9 20674  2007     1     0  1200  8488    83    27  -152    40    27    40
## 10 20674  2007     1     0  1100  8601    83    27  -148    41    27    37
## # … with 77,063 more rows, and 14 more variables: SD <dbl>, ND <dbl>,
## #   MS <dbl>, SS <dbl>, NS <dbl>, MU <dbl>, SU <dbl>, NU <dbl>, MV <dbl>,
## #   SV <dbl>, NV <dbl>, Название <chr>, Широта <dbl>, Долгота <dbl>
```

Создадим объект типа `circular` (из пакета __circular__) с направлениями ветра для анализа, и запишем его в новую переменую таблицы. Предварительно определим вспомогательную функцию, вычисляющую географический азимут на основе компонент скорости:

```r
geo_azimuth = function(dx, dy) {
  a = atan2(dx, dy)
  ifelse(a <= pi/2, pi/2 - a,  5*pi/2 - a)
}

(winds = tab %>% 
  mutate(wind = circular(geo_azimuth(MV, MU), template = 'geographics')) %>% 
  select(INDEX, name = Название, GGGG, MM, HH, Z, MU, MV, SS, wind))
## # A tibble: 77,073 x 10
##    INDEX name           GGGG    MM    HH     Z    MU    MV    SS wind      
##    <dbl> <chr>         <dbl> <dbl> <dbl> <dbl> <dbl> <dbl> <dbl> <circular>
##  1 20674 Остров Диксон  2007     1     0  2000    33    31    45 0.8166380 
##  2 20674 Остров Диксон  2007     1     0  1900    32    32    45 0.7853982 
##  3 20674 Остров Диксон  2007     1     0  1800    30    33    46 0.7378151 
##  4 20674 Остров Диксон  2007     1     0  1700    29    35    47 0.6919214 
##  5 20674 Остров Диксон  2007     1     0  1600    28    38    49 0.6350267 
##  6 20674 Остров Диксон  2007     1     0  1500    26    40    50 0.5763752 
##  7 20674 Остров Диксон  2007     1     0  1400    25    41    51 0.5475622 
##  8 20674 Остров Диксон  2007     1     0  1300    25    42    54 0.5369107 
##  9 20674 Остров Диксон  2007     1     0  1200    24    45    56 0.4899573 
## 10 20674 Остров Диксон  2007     1     0  1100    24    49    58 0.4554511 
## # … with 77,063 more rows
```

Выберем данные по высоте 0 метров за 12 часов дня для поселка Тикси, сохранив только составляющие скорости и ее скалярную величину:

```r
(tiksi_wind = winds %>% filter(name == 'Тикси', HH == 12, Z == 0))
## # A tibble: 136 x 10
##    INDEX name   GGGG    MM    HH     Z    MU    MV    SS wind      
##    <dbl> <chr> <dbl> <dbl> <dbl> <dbl> <dbl> <dbl> <dbl> <circular>
##  1 21824 Тикси  2007     1    12     0    36    35    48 0.7994817 
##  2 21824 Тикси  2007     2    12     0    16    11    27 0.9685090 
##  3 21824 Тикси  2007     3    12     0    23    22    34 0.8076167 
##  4 21824 Тикси  2007     4    12     0    17     9    30 1.0838971 
##  5 21824 Тикси  2007     5    12     0   -17    -3    34 4.5377168 
##  6 21824 Тикси  2007     6    12     0   -23   -25    27 3.8853482 
##  7 21824 Тикси  2007     7    12     0    -5   -11    27 3.5682201 
##  8 21824 Тикси  2007     8    12     0     4     5    25 0.6747409 
##  9 21824 Тикси  2007     9    12     0    24    14    34 1.0427219 
## 10 21824 Тикси  2007    10    12     0    41    47    40 0.7173217 
## # … with 126 more rows
```
…
### Восстановление пропусков и проверка корректности дат {#circular_time_complete}

Данные во временных рядах часто соответствуют _равноотстоящим по времени_ срезам (раз в несколько часов, раз в день, раз в три месяца и т.д.), что обусловлено регулярным характером сбора информации (наблюдения, предоставление отчетности и т.д.). Соответствующее предположение лежит и в основе многих функций временного анализа (таких как автокорреляционная функция). Если в данных отсутствуют некоторые временные срезы, это нарушает регулярность временного ряда, что может привести к его некорректной интерпретации. Необходимо восстановить пропущенные сроки, явным образом указав, что данных на эти сроки нет. 

Помимо этого, дата может быть записана в _некорректной_ форме. Например, оператор ввода данных перепутал месяц и день 18 марта, что привело к созданию несуществующей даты 03.18 в одной из строк.

Подобные несовершенства временных рядов важно выявить на самых ранних стадиях анализа данных. Рассмотрим, как эту задачу можно решить средствами R. В качестве источника данных будем использовать данные^[Данные предоставлены кафедрой гидрологии суши Географического факультета МГУ имени М.В.Ломоносова] об уровне воды на гидропосте Паялка (р. Умба, Мурманская область) с 1932 по 2014 год. Отсутствие информации в файле данных закодировано числом `9999`:

```r
(src = read_delim('data/in_Umba.txt', delim = ' ', 
                 col_names = c('day', 'month', 'year', 'level'), na = '9999'))
## # A tibble: 30,316 x 4
##      day month  year level
##    <dbl> <dbl> <dbl> <dbl>
##  1     1     1  1932  49.4
##  2     2     1  1932  NA  
##  3     3     1  1932  NA  
##  4     4     1  1932  NA  
##  5     5     1  1932  NA  
##  6     6     1  1932  NA  
##  7     7     1  1932  NA  
##  8     8     1  1932  NA  
##  9     9     1  1932  NA  
## 10    10     1  1932  47  
## # … with 30,306 more rows
```
…
В гидрологии за допустимую величину автокорреляции при восстановлении рядов данных принято брать значение, равное $0.7$. Найдем индекс первого элемента менее данной величины, используя функцию `detect_index()` из пакета __purrr__:

```r
(max_dur = purrr::detect_index(autocorr$acf, ~ .x < 0.7))
## [1] 15
```
Полученное значение говорит нам о том, что при заданном допуске допустимо интерполировать значения в пропусках данных короче, чем 15 дней.

Для выполнения интерполяции воспользуемся функцией `na.approx()` из пакета __zoo__ и округлим полученные значения до одного знака после запятой (что соответствует точности исходных данных):

```r
(tab_interp = tab %>% 
  mutate(level_interp = zoo::na.approx(level, maxgap = max_dur) %>% round(1)))
## # A tibble: 30,317 x 6
##    Date         day month  year level level_interp
##    <date>     <dbl> <dbl> <dbl> <dbl>        <dbl>
##  1 1932-01-01     1     1  1932  49.4         49.4
##  2 1932-01-02     2     1  1932  NA           49.1
##  3 1932-01-03     3     1  1932  NA           48.9
##  4 1932-01-04     4     1  1932  NA           48.6
##  5 1932-01-05     5     1  1932  NA           48.3
##  6 1932-01-06     6     1  1932  NA           48.1
##  7 1932-01-07     7     1  1932  NA           47.8
##  8 1932-01-08     8     1  1932  NA           47.5
##  9 1932-01-09     9     1  1932  NA           47.3
## 10 1932-01-10    10     1  1932  47           47  
## # … with 30,307 more rows
```
…
### Статистики {#circular_time_tests}

Существует ряд статистик и статистических тестов, которые часто используются для временных данных. Среди них мы рассмотрим следующие:

- Тест Манна-Кендалла на значимость линейного тренда
- Тест Петтитт на точку перелома
— Оценка тренда по методу Тейла-Сена

В качестве примера возьмем данные межгодичных изменений характеристик стока реки Мезень на посту Малонисогорская^[Данные предоставлены кафедрой гидрологии суши Географического факультета МГУ имени М.В.Ломоносова]:

```r
library(readr)

(tab = read_csv('data/Mezen.csv'))
## # A tibble: 75 x 57
##    year_number Year1 Year2 datestart  datepolend    Qy  Qmax datemax   
##          <dbl> <dbl> <dbl> <date>     <date>     <dbl> <dbl> <date>    
##  1           1  1938  1939 2000-03-23 2000-06-08  98.1   747 2000-04-03
##  2           2  1939  1940 2000-03-16 2000-07-11  66.9   487 2000-04-28
##  3           3  1940  1941 2000-03-09 2000-07-12  97.4   995 2000-04-28
##  4           4  1941  1942 2000-03-24 2000-07-21 214.   2030 2000-05-01
##  5           5  1942  1943 2000-04-02 2000-07-31 242.   2790 2000-05-08
##  6           6  1943  1944 2000-03-24 2000-06-15  71.3   451 2000-05-02
##  7           7  1944  1945 2000-02-26 2000-06-30  89.0   530 2000-04-28
##  8           8  1945  1946 2000-03-25 2000-07-13 128.   1220 2000-04-27
##  9           9  1946  1947 2000-03-15 2000-06-30 179.   2150 2000-04-28
## 10          10  1947  1948 2000-03-06 2000-07-15 153.   1720 2000-04-16
## # … with 65 more rows, and 49 more variables: Qygr <dbl>, Qmmsummer <dbl>,
## #   monmmsummer <date>, Qmmwin <dbl>, nommwin <date>, Q30s <dbl>,
## #   date30s1 <date>, date30s2 <date>, Q30w <dbl>, date30w1 <date>,
## #   date30w2 <date>, Q10s <dbl>, date10s1 <date>, date10s2 <date>,
## #   Q10w <dbl>, date10w1 <date>, date10w2 <date>, Q5s <dbl>,
## #   date5s1 <date>, date5s2 <date>, Q5w <dbl>, date5w1 <date>,
## #   date5w2 <date>, Wy <dbl>, Wgr <dbl>, Wpol1 <dbl>, Wpol2 <dbl>,
## #   Wpol3 <dbl>, Wpavs1 <dbl>, Wpavs2 <dbl>, Wpavthaw1 <dbl>,
## #   Wpavthaw2 <dbl>, WgrS <dbl>, WS <dbl>, WgrW <dbl>, WW <dbl>,
…
