…
## Восстановление пропусков и проверка корректности дат {#temporal_complete}

Данные во временных рядах часто соответствуют _равноотстоящим по времени_ срезам (раз в несколько часов, раз в день, раз в три месяца и т.д.), что обусловлено регулярным характером сбора информации (наблюдения, предоставление отчетности и т.д.). Соответствующее предположение лежит и в основе многих функций временного анализа (таких как автокорреляционная функция). Если в данных отсутствуют некоторые временные срезы, это нарушает регулярность временного ряда, что может привести к его некорректной интерпретации. Необходимо восстановить пропущенные сроки, явным образом указав, что данных на эти сроки нет. 

Помимо этого, дата может быть записана в _некорректной_ форме. Например, оператор ввода данных перепутал месяц и день 18 марта, что привело к созданию несуществующей даты 03.18 в одной из строк.

Подобные несовершенства временных рядов важно выявить на самых ранних стадиях анализа данных. Рассмотрим, как эту задачу можно решить средствами R. В качестве источника данных будем использовать данные^[Данные предоставлены кафедрой гидрологии суши Географического факультета МГУ имени М.В.Ломоносова] об уровне воды на гидропосте Паялка (р. Умба, Мурманская область) с 1932 по 2014 год. Отсутствие информации в файле данных закодировано числом `9999`:

```r
(src = read_delim('data/in_Umba.txt', delim = ' ', 
                 col_names = c('day', 'month', 'year', 'level'), na = '9999'))
## # A tibble: 30,316 × 4
##      day month  year level
##    <dbl> <dbl> <dbl> <dbl>
##  1     1     1  1932  49.4
##  2     2     1  1932  NA  
##  3     3     1  1932  NA  
##  4     4     1  1932  NA  
##  5     5     1  1932  NA  
##  6     6     1  1932  NA  
##  7     7     1  1932  NA  
##  8     8     1  1932  NA  
##  9     9     1  1932  NA  
## 10    10     1  1932  47  
## # … with 30,306 more rows
```
…
В гидрологии за допустимую величину автокорреляции при восстановлении рядов данных принято брать значение, равное $0.7$. Найдем индекс первого элемента менее данной величины, используя функцию `detect_index()` из пакета __purrr__:

```r
(max_dur = purrr::detect_index(autocorr$acf, ~ .x < 0.7))
## [1] 15
```
Полученное значение говорит нам о том, что при заданном допуске допустимо интерполировать значения в пропусках данных короче, чем 15 дней.

Для выполнения интерполяции воспользуемся функцией `na.approx()` из пакета __zoo__ и округлим полученные значения до одного знака после запятой (что соответствует точности исходных данных):

```r
(tab_interp = tab %>% 
  mutate(level_interp = zoo::na.approx(level, maxgap = max_dur) %>% round(1)))
## # A tibble: 30,317 × 6
##    Date         day month  year level level_interp
##    <date>     <dbl> <dbl> <dbl> <dbl>        <dbl>
##  1 1932-01-01     1     1  1932  49.4         49.4
##  2 1932-01-02     2     1  1932  NA           49.1
##  3 1932-01-03     3     1  1932  NA           48.9
##  4 1932-01-04     4     1  1932  NA           48.6
##  5 1932-01-05     5     1  1932  NA           48.3
##  6 1932-01-06     6     1  1932  NA           48.1
##  7 1932-01-07     7     1  1932  NA           47.8
##  8 1932-01-08     8     1  1932  NA           47.5
##  9 1932-01-09     9     1  1932  NA           47.3
## 10 1932-01-10    10     1  1932  47           47  
## # … with 30,307 more rows
```
…
По результатам автокореляционного анализа и интерполяции удалось заполнить значительное число пропусков в данных. Однако по прежнему остаются значительные по длине пропуски, которые уже требуют привлечения дополнительных источников информации для их заполнения.

### Пересчет на другую временную сетку {#temporal_interp_reg}

Когда данные, поступающие из различных источников, привязаны к несовпадающим временным срезам, возникает задача приведения их к единой временной сетке. Как правило, эта сетка имеет регулярный шаг (каждый час, каждый месяц и т.д.), поскольку это упрощает выполнение статистического анализа. 

Одним из источников данных, не привязанных к жесткой временной сетке, является геосенсорная сеть домашних метеостанций [__NETATMO__](https://weathermap.netatmo.com/), которая собирает информацию с пользовательских устройств примерно каждый полчаса. Сроки, однако, четко не соблюдаются. Помимо этого, система, в силу её добровольно-волонтёрского характера, не предусматривает бесперебойное функционирование всех метеостанций: пользователь может отключить свой прибор на несколько часов или дней, в результате чего в данных могут образоваться дополнительные пропуски. Вследствие этого данные NETATMO характеризуются высокой степенью иррегулярности во времени.

Загрузим в качестве примера данные по метеостанции с идентификатором `70_ee_50_00_8e_1a`, расположенной в пределах Московского мегаполиса (данные выгружены посредством NETATMO [Weather API](https://dev.netatmo.com/en-US/resources/technical/reference/weatherapi)):

```r
(tab = read_csv('data/70_ee_50_00_8e_1a.csv'))
## # A tibble: 1,405 × 11
##    altitude humidity id                latitude longitude pressure temperature
##       <dbl>    <dbl> <chr>                <dbl>     <dbl>    <dbl>       <dbl>
##  1      189       55 70:ee:50:00:8e:1a     55.7      37.6    1014.        23.1
##  2      189       56 70:ee:50:00:8e:1a     55.7      37.6    1013.        22.5
##  3      189       57 70:ee:50:00:8e:1a     55.7      37.6    1014.        21.9
##  4      189       59 70:ee:50:00:8e:1a     55.7      37.6    1014.        21.1
##  5      189       62 70:ee:50:00:8e:1a     55.7      37.6    1014         20  
##  6      189       65 70:ee:50:00:8e:1a     55.7      37.6    1014.        19.7
##  7      189       66 70:ee:50:00:8e:1a     55.7      37.6    1014.        19.6
##  8      189       67 70:ee:50:00:8e:1a     55.7      37.6    1014.        19.5
##  9      189       68 70:ee:50:00:8e:1a     55.7      37.6    1014.        19.2
## 10      189       68 70:ee:50:00:8e:1a     55.7      37.6    1015.        19.2
## # … with 1,395 more rows, and 4 more variables: time_humidity <dttm>,
## #   time_pressure <dttm>, time_temperature <dttm>, timezone <chr>
```
…
В данном случае видно, что возможные границы сроков интерполяции для всех трех переменных совпадают, что несколько облегачает задачу.
Проинтерполуруем данные на единую регулярную временную сетку через $30$ минут, используя функцию [`approx()`](https://stat.ethz.ch/R-manual/R-devel/library/stats/html/approxfun.html) из базового __R__. По умолчанию данная функция использует линейную интерполяцию по ближайшим значениям до и после интерполируемого:

```r
(time_interp = tibble(
  datetime = seq(min(time_bounds$tmin), max(time_bounds$tmax), by = '30 min'),
  temp = round(approx(tab$time_temperature, tab$temperature, xout = datetime)$y, 1),
  humd = round(approx(tab$time_humidity, tab$humidity, xout = datetime)$y, 1),
  pres = round(approx(tab$time_pressure, tab$pressure, xout = datetime)$y, 1)
))
## # A tibble: 2,049 × 4
##    datetime             temp  humd  pres
##    <dttm>              <dbl> <dbl> <dbl>
##  1 2019-09-04 14:30:00  22.8  55.5 1014.
##  2 2019-09-04 15:00:00  22.4  56.1 1013.
##  3 2019-09-04 15:30:00  22.1  56.6 1014.
##  4 2019-09-04 16:00:00  21.7  57.5 1014.
##  5 2019-09-04 16:30:00  20.8  59.8 1014.
##  6 2019-09-04 17:00:00  20    62.4 1014 
##  7 2019-09-04 17:30:00  19.8  63.9 1014.
##  8 2019-09-04 18:00:00  19.7  65.2 1014.
##  9 2019-09-04 18:30:00  19.6  66.2 1014.
## 10 2019-09-04 19:00:00  19.5  67.1 1014.
## # … with 2,039 more rows
```
…
Созданная таким образом кусочно-линейная функция для переданного ей значения времени будет возвращать порядковый номер временного интервала исходных данных. Оценим с помощью нее временные расстояния до ближайших наблюдений и их соответствие выдвинутым условиям:

```r
(timediff = lapply(time_interp$datetime, function(time) {
  idx = tempfun(time)
  tibble(datetime = time,
         temp_before = time - src_time[idx],
         temp_after = src_time[idx + 1] - time,
         temp_valid = min(temp_before, temp_after) <= minutes(30) && temp_before + temp_after <= minutes(90))
}) %>% bind_rows())
## # A tibble: 2,049 × 4
##    datetime            temp_before temp_after temp_valid
##    <dttm>              <drtn>      <drtn>     <lgl>     
##  1 2019-09-04 14:30:00 1113 secs   1296 secs  TRUE      
##  2 2019-09-04 15:00:00  504 secs   3135 secs  TRUE      
##  3 2019-09-04 15:30:00 2304 secs   1335 secs  TRUE      
##  4 2019-09-04 16:00:00  465 secs   1330 secs  TRUE      
##  5 2019-09-04 16:30:00  470 secs   1324 secs  TRUE      
##  6 2019-09-04 17:00:00  476 secs   3163 secs  TRUE      
##  7 2019-09-04 17:30:00 2276 secs   1363 secs  TRUE      
##  8 2019-09-04 18:00:00  437 secs   1358 secs  TRUE      
##  9 2019-09-04 18:30:00  442 secs   1403 secs  TRUE      
## 10 2019-09-04 19:00:00  397 secs   3499 secs  TRUE      
## # … with 2,039 more rows
…
Аналогичную проверку валидности следует выполнить для оставшихся переменных — влажности и давления.

## Аппроксимация по времени {#temporal_loess}

Одной из важных составляющих работы с временными данными является анализ временных трендов и закономерностей. В качестве примера возьмем данные межгодичных изменений характеристик стока реки Мезень на посту Малонисогорская^[Данные предоставлены кафедрой гидрологии суши Географического факультета МГУ имени М.В.Ломоносова]:

```r
library(readr)

(tab = read_csv('data/Mezen.csv'))
## # A tibble: 75 × 57
##    year_number Year1 Year2 datestart  datepolend    Qy  Qmax datemax     Qygr
##          <dbl> <dbl> <dbl> <date>     <date>     <dbl> <dbl> <date>     <dbl>
##  1           1  1938  1939 2000-03-23 2000-06-08  98.1   747 2000-04-03  19.9
##  2           2  1939  1940 2000-03-16 2000-07-11  66.9   487 2000-04-28  14.8
##  3           3  1940  1941 2000-03-09 2000-07-12  97.4   995 2000-04-28  18.9
##  4           4  1941  1942 2000-03-24 2000-07-21 214.   2030 2000-05-01  31.4
##  5           5  1942  1943 2000-04-02 2000-07-31 242.   2790 2000-05-08  26.9
##  6           6  1943  1944 2000-03-24 2000-06-15  71.3   451 2000-05-02  26.5
##  7           7  1944  1945 2000-02-26 2000-06-30  89.0   530 2000-04-28  27.0
##  8           8  1945  1946 2000-03-25 2000-07-13 128.   1220 2000-04-27  33.9
##  9           9  1946  1947 2000-03-15 2000-06-30 179.   2150 2000-04-28  25.8
## 10          10  1947  1948 2000-03-06 2000-07-15 153.   1720 2000-04-16  31.3
## # … with 65 more rows, and 48 more variables: Qmmsummer <dbl>,
## #   monmmsummer <date>, Qmmwin <dbl>, nommwin <date>, Q30s <dbl>,
## #   date30s1 <date>, date30s2 <date>, Q30w <dbl>, date30w1 <date>,
## #   date30w2 <date>, Q10s <dbl>, date10s1 <date>, date10s2 <date>, Q10w <dbl>,
## #   date10w1 <date>, date10w2 <date>, Q5s <dbl>, date5s1 <date>,
## #   date5s2 <date>, Q5w <dbl>, date5w1 <date>, date5w2 <date>, Wy <dbl>,
## #   Wgr <dbl>, Wpol1 <dbl>, Wpol2 <dbl>, Wpol3 <dbl>, Wpavs1 <dbl>, …
```
…
