…
<img src="10-ThematicMapping_files/figure-html/unnamed-chunk-4-1.png" width="672" />

Количественный фон или картограммы получаются при картографировании числового показателя:

```r
('1H3nzTwbn8z4lJ5gJ_WfDgCeGEXK3PVGcNjQ_U5og8eo' %>% # продолжительность жизни
  gs_key(lookup = FALSE) %>% # не используем авторизацию
  gs_read(ws = 1) %>% 
  rename(name = 1) %>% 
  gather(year, lifexp, -name) %>% 
  filter(year == 2016) %>% 
  left_join(read_excel('gapminder.xlsx', 2)) %>% 
  mutate(geo = stringr::str_to_upper(geo)) -> lifedf) # выгружаем данные по ВВП на душу населения и сохраняем в переменную lifedf
## # A tibble: 260 x 13
##    name  year  lifexp geo   four_regions eight_regions six_regions
##    <chr> <chr>  <dbl> <chr> <chr>        <chr>         <chr>      
##  1 Abkh… 2016    NA   <NA>  <NA>         <NA>          <NA>       
##  2 Afgh… 2016    52.7 AFG   asia         asia_west     south_asia 
##  3 Akro… 2016    NA   <NA>  <NA>         <NA>          <NA>       
##  4 Alba… 2016    78.1 ALB   europe       europe_east   europe_cen…
##  5 Alge… 2016    76.5 DZA   africa       africa_north  middle_eas…
##  6 Amer… 2016    73   <NA>  <NA>         <NA>          <NA>       
##  7 Ando… 2016    84.8 AND   europe       europe_west   europe_cen…
##  8 Ango… 2016    60   AGO   africa       africa_sub_s… sub_sahara…
##  9 Angu… 2016    NA   <NA>  <NA>         <NA>          <NA>       
## 10 Anti… 2016    76.5 ATG   americas     america_north america    
## # ... with 250 more rows, and 6 more variables: members_oecd_g77 <chr>,
## #   Latitude <dbl>, Longitude <dbl>, `UN member since` <dttm>, `World bank
## #   region` <chr>, `World bank income group 2017` <chr>
…
