Визуализация и анализ географических данных на языке R - 13 Векторный анализ
…
Теперь приступим к изучению данных, хранящихся в слое poi (от англ. POI — Point Of Interest). Данный слой содержит все точечные маркеры OSM, которыми были отмечены на карте объекты, представляющие (по мнению создателей данных) интерес для пользователей. В POI включаются самые разнообразные объекты, такие как: объекты сферы услуг (amenity), места для отдыха (leisure), офисные здания (office), магазины и торговые центры (shop), туристические достопримечательности (tourism), спортивные объекты (sport), примечательные инженерные сооружения (man_made). В наших данных информация разнесена по соответствующим полям, каждый объект снабжен уникальным идентификатором:

## Simple feature collection with 6623 features and 9 fields
## Geometry type: POINT
## Dimension:     XY
## Bounding box:  xmin: 410947.3 ymin: 6176678 xmax: 415889.9 ymax: 6181909
## Projected CRS: WGS 84 / UTM zone 37N
## # A tibble: 6,623 × 10
##        OSM_ID NAME           MAN_MADE LEISURE AMENITY OFFICE SHOP  TOURISM SPORT
##         <dbl> <chr>          <chr>    <chr>   <chr>   <chr>  <chr> <chr>   <chr>
##  1 2932331614 Арт-квартал    <NA>     <NA>    <NA>    <NA>   doit… <NA>    <NA> 
##  2 3639408399 <NA>           <NA>     <NA>    pharma… <NA>   <NA>  <NA>    <NA> 
##  3 3707882299 <NA>           <NA>     <NA>    parkin… <NA>   <NA>  <NA>    <NA> 
##  4 3639408396 Стиль золото   <NA>     <NA>    <NA>    <NA>   jewe… <NA>    <NA> 
##  5 3639408397 Цветочная баз… <NA>     <NA>    <NA>    <NA>   flor… <NA>    <NA> 
##  6 1413216563 Азбука Вкуса   <NA>     <NA>    <NA>    <NA>   supe… <NA>    <NA> 
##  7 3641139540 <NA>           <NA>     <NA>    waste_… <NA>   <NA>  <NA>    <NA> 
##  8 3636920934 Аршин          <NA>     <NA>    restau… <NA>   <NA>  <NA>    <NA> 
##  9 3644422074 Адамас         <NA>     <NA>    <NA>    <NA>   jewe… <NA>    <NA> 
## 10 3424516009 Андерсон       <NA>     <NA>    restau… <NA>   <NA>  <NA>    <NA> 
## # ℹ 6,613 more rows
## # ℹ 1 more variable: geometry <POINT [m]>
…
## Simple feature collection with 39 features and 3 fields
## Geometry type: POINT
## Dimension:     XY
## Bounding box:  xmin: 411944.2 ymin: 6178233 xmax: 412839 ymax: 6179056
## Projected CRS: WGS 84 / UTM zone 37N
## # A tibble: 39 × 4
##    NAME          AMENITY              geometry count
##    <chr>         <chr>             <POINT [m]> <dbl>
##  1 Журфак        restaurant (411944.2 6178611)     1
##  2 Гоголь-моголь cafe       (411968.6 6178588)     1
##  3 Манкс & Нанс  bar        (412029.5 6178819)     1
##  4 5 специй      restaurant (412045.3 6178814)     1
##  5 45            bar        (412063.1 6178771)     1
##  6 Генацвале     restaurant (412072.2 6178255)     1
##  7 Чемодан       restaurant (412092.2 6179000)     1
##  8 Азия Кафе     restaurant (412142.7 6178592)     1
##  9 Лица          restaurant   (412139 6178358)     1
## 10 Баба Марта    restaurant (412154.8 6178720)     1
## # ℹ 29 more rows
…
## Simple feature collection with 39 features and 3 fields
## Geometry type: POINT
## Dimension:     XY
## Bounding box:  xmin: 411661.2 ymin: 6176685 xmax: 415287.1 ymax: 6178953
## Projected CRS: WGS 84 / UTM zone 37N
## # A tibble: 39 × 4
##    NAME                 AMENITY              geometry count
##    <chr>                <chr>             <POINT [m]> <dbl>
##  1 Белый журавль        restaurant (411661.2 6177029)     1
##  2 What's Up Dog!       fast_food  (411871.8 6176685)     1
##  3 Coffee@Парк Горького cafe       (411917.7 6176775)     1
##  4 Sekta                restaurant   (411975 6176908)     1
##  5 GlowSubs             fast_food  (412060.5 6177161)     1
##  6 Чай & кофе           cafe       (412197.5 6177284)     1
##  7 Академия             restaurant (412222.4 6177790)     1
##  8 Kaffebrod            cafe       (412280.3 6177452)     1
##  9 Les                  cafe       (412299.1 6177468)     1
## 10 Beefbar              restaurant (412344.9 6177823)     1
## # ℹ 29 more rows
…
Загрузим данные по всем обсерваториям из текстовых файлов в папке bound:

files = paste('data/bound', list.files('data/bound', "*.txt"), sep = '/')

(tab = lapply(files, function(X) {
    read_table(X, col_names = params$Обозначение)
  }) |> 
  bind_rows() |> 
  left_join(obs, by = c('INDEX' = 'Индекс'))) # присоединим информацию о названиях станций
## # A tibble: 77,073 × 26
##    INDEX  GGGG    MM    HH     Z    MP    SP    NP    MT    ST    NT    MD    SD
##    <dbl> <dbl> <dbl> <dbl> <dbl> <dbl> <dbl> <dbl> <dbl> <dbl> <dbl> <dbl> <dbl>
##  1 20674  2007     1     0  2000  7629    78    27  -187    35    27    53    46
##  2 20674  2007     1     0  1900  7732    79    27  -182    36    27    52    46
##  3 20674  2007     1     0  1800  7836    79    27  -178    36    27    51    45
##  4 20674  2007     1     0  1700  7942    80    27  -173    36    27    49    44
##  5 20674  2007     1     0  1600  8048    81    27  -168    36    27    48    44
##  6 20674  2007     1     0  1500  8157    81    27  -164    38    27    47    44
##  7 20674  2007     1     0  1400  8266    82    27  -160    39    27    45    44
##  8 20674  2007     1     0  1300  8376    82    27  -156    39    27    43    42
##  9 20674  2007     1     0  1200  8488    83    27  -152    40    27    40    40
## 10 20674  2007     1     0  1100  8601    83    27  -148    41    27    37    39
## # ℹ 77,063 more rows
## # ℹ 13 more variables: ND <dbl>, MS <dbl>, SS <dbl>, NS <dbl>, MU <dbl>,
## #   SU <dbl>, NU <dbl>, MV <dbl>, SV <dbl>, NV <dbl>, Название <chr>,
## #   Широта <dbl>, Долгота <dbl>

Создадим объект типа circular (из пакета circular) с направлениями ветра для анализа, и запишем его в новую переменую таблицы. Предварительно определим вспомогательную функцию, вычисляющую географический азимут на основе компонент скорости:

geo_azimuth = function(dx, dy) {
  a = atan2(dx, dy)
  ifelse(a <= pi/2, pi/2 - a,  5*pi/2 - a)
}

(winds = tab |> 
  mutate(wind = circular(geo_azimuth(MV, MU), template = 'geographics')) %>% 
  select(INDEX, name = Название, GGGG, MM, HH, Z, MU, MV, SS, wind))
## # A tibble: 77,073 × 10
##    INDEX name           GGGG    MM    HH     Z    MU    MV    SS wind      
##    <dbl> <chr>         <dbl> <dbl> <dbl> <dbl> <dbl> <dbl> <dbl> <circular>
##  1 20674 Остров Диксон  2007     1     0  2000    33    31    45 0.8166380 
##  2 20674 Остров Диксон  2007     1     0  1900    32    32    45 0.7853982 
##  3 20674 Остров Диксон  2007     1     0  1800    30    33    46 0.7378151 
##  4 20674 Остров Диксон  2007     1     0  1700    29    35    47 0.6919214 
##  5 20674 Остров Диксон  2007     1     0  1600    28    38    49 0.6350267 
##  6 20674 Остров Диксон  2007     1     0  1500    26    40    50 0.5763752 
##  7 20674 Остров Диксон  2007     1     0  1400    25    41    51 0.5475622 
##  8 20674 Остров Диксон  2007     1     0  1300    25    42    54 0.5369107 
##  9 20674 Остров Диксон  2007     1     0  1200    24    45    56 0.4899573 
## 10 20674 Остров Диксон  2007     1     0  1100    24    49    58 0.4554511 
## # ℹ 77,063 more rows

Выберем данные по высоте 0 метров за 12 часов дня для поселка Тикси, сохранив только составляющие скорости и ее скалярную величину:

(tiksi_wind = winds |> filter(name == 'Тикси', HH == 12, Z == 0))
## # A tibble: 136 × 10
##    INDEX name   GGGG    MM    HH     Z    MU    MV    SS wind      
##    <dbl> <chr> <dbl> <dbl> <dbl> <dbl> <dbl> <dbl> <dbl> <circular>
##  1 21824 Тикси  2007     1    12     0    36    35    48 0.7994817 
##  2 21824 Тикси  2007     2    12     0    16    11    27 0.9685090 
##  3 21824 Тикси  2007     3    12     0    23    22    34 0.8076167 
##  4 21824 Тикси  2007     4    12     0    17     9    30 1.0838971 
##  5 21824 Тикси  2007     5    12     0   -17    -3    34 4.5377168 
##  6 21824 Тикси  2007     6    12     0   -23   -25    27 3.8853482 
##  7 21824 Тикси  2007     7    12     0    -5   -11    27 3.5682201 
##  8 21824 Тикси  2007     8    12     0     4     5    25 0.6747409 
##  9 21824 Тикси  2007     9    12     0    24    14    34 1.0427219 
## 10 21824 Тикси  2007    10    12     0    41    47    40 0.7173217 
## # ℹ 126 more rows
…
