Глава 6 Продвинутая графика | Визуализация и анализ географических данных на языке R
…
tables = c('tet00034', 'tet00033', 'tet00032', 'tet00031','tet00030', 'tet00029')

trades = lapply(tables, function(X) { # прочтем несколько таблиц в список
  get_eurostat(X) %>% label_eurostat()
}) %>% 
  bind_rows() %>% # объединим прочитанные таблицы в одну
  select(-geo) %>% # убираем столбец с территорией торговли, т.к. там только Евросоюз
  dplyr::filter(stringr::str_detect(indic_et, 'Exports in|Imports in')) %>% # оставим только экспорт и импорт
  pivot_wider(names_from = indic_et, values_from = values) %>%  # вынесем данные по экспорту и импорту в отдельные переменные
  rename(export = `Exports in million of ECU/EURO`, # дадим им краткие названия
         import = `Imports in million of ECU/EURO`) %>% 
  mutate(partner = as.factor(partner))

trades # посмотрим, что получилось
## # A tibble: 720 x 5
##    sitc06                   partner                time        export import
##    <chr>                    <fct>                  <date>       <dbl>  <dbl>
##  1 Food, drinks and tobacco Argentina              2008-01-01    81.3  7334 
##  2 Food, drinks and tobacco Brazil                 2008-01-01   600.   9639.
##  3 Food, drinks and tobacco Canada                 2008-01-01  1950.   1458.
##  4 Food, drinks and tobacco Switzerland            2008-01-01  5000.   2727.
##  5 Food, drinks and tobacco China except Hong Kong 2008-01-01  1322.   3567.
##  6 Food, drinks and tobacco Japan                  2008-01-01  3964.    119.
##  7 Food, drinks and tobacco Norway                 2008-01-01  2416.   3012.
##  8 Food, drinks and tobacco Russia                 2008-01-01  7567.    855.
##  9 Food, drinks and tobacco Turkey                 2008-01-01  1175    3160.
## 10 Food, drinks and tobacco United States          2008-01-01 10021.   6030.
## # … with 710 more rows
…
daily_single_ag # посмотрим, что получилось
## NASA/POWER SRB/FLASHFlux/MERRA2/GEOS 5.12.4 (FP-IT) 0.5 x 0.5 Degree Daily Averaged Data  
##  Dates (month/day/year): 04/01/1995 through 04/30/1995  
##  Location: Latitude  56.84   Longitude 60.59  
##  Elevation from MERRA-2: Average for 1/2x1/2 degree lat/lon region = 279.98 meters   Site = na  
##  Climate zone: na (reference Briggs et al: http://www.energycodes.gov)  
##  Value for missing model data cannot be computed or out of model availability range: NA  
##  
##  Parameters: 
##  T2M MERRA2 1/2x1/2 Temperature at 2 Meters (C) ;
##  PRECTOT MERRA2 1/2x1/2 Precipitation (mm day-1) ;
##  RH2M MERRA2 1/2x1/2 Relative Humidity at 2 Meters (%)  
##  
## # A tibble: 30 x 10
##      LON   LAT  YEAR    MM    DD   DOY YYYYMMDD    RH2M   T2M PRECTOT
##    <dbl> <dbl> <dbl> <int> <int> <int> <date>     <dbl> <dbl>   <dbl>
##  1  60.6  56.8  1995     4     1    91 1995-04-01  77.1  6.29    0   
##  2  60.6  56.8  1995     4     2    92 1995-04-02  78.4  8.13    0   
##  3  60.6  56.8  1995     4     3    93 1995-04-03  75.1  8.35    0.03
##  4  60.6  56.8  1995     4     4    94 1995-04-04  78.1  7.92    2.35
##  5  60.6  56.8  1995     4     5    95 1995-04-05  89.4  5.64    3.99
##  6  60.6  56.8  1995     4     6    96 1995-04-06  89.0  6.29    1.26
##  7  60.6  56.8  1995     4     7    97 1995-04-07  82.5  3.58    1.14
##  8  60.6  56.8  1995     4     8    98 1995-04-08  75.1  2.6     1.47
##  9  60.6  56.8  1995     4     9    99 1995-04-09  77.1  3.88    1.76
## 10  60.6  56.8  1995     4    10   100 1995-04-10  72.6  4.96    0   
## # … with 20 more rows
…
