Глава 11 Тематические карты | Визуализация и анализ географических данных на языке R
…
Количественный фон или картограммы получаются при картографировании числового показателя применением той же функции tm_polygons():

(read_sheet('1H3nzTwbn8z4lJ5gJ_WfDgCeGEXK3PVGcNjQ_U5og8eo') %>% # продолжительность жизни
  rename(name = 1) %>% 
  gather(year, lifexp, -name) %>% 
  dplyr::filter(year == 2016) %>% 
  left_join(read_excel('data/gapminder.xlsx', 2)) %>% 
  mutate(geo = stringr::str_to_upper(geo)) -> lifedf) # выгружаем данные по продолжительности и сохраняем в переменную lifedf
## # A tibble: 260 x 13
##    name  year  lifexp geo   four_regions eight_regions six_regions
##    <chr> <chr>  <dbl> <chr> <chr>        <chr>         <chr>      
##  1 Abkh… 2016    NA   <NA>  <NA>         <NA>          <NA>       
##  2 Afgh… 2016    52.7 AFG   asia         asia_west     south_asia 
##  3 Akro… 2016    NA   <NA>  <NA>         <NA>          <NA>       
##  4 Alba… 2016    78.1 ALB   europe       europe_east   europe_cen…
##  5 Alge… 2016    76.5 DZA   africa       africa_north  middle_eas…
##  6 Amer… 2016    73   <NA>  <NA>         <NA>          <NA>       
##  7 Ando… 2016    84.8 AND   europe       europe_west   europe_cen…
##  8 Ango… 2016    60   AGO   africa       africa_sub_s… sub_sahara…
##  9 Angu… 2016    NA   <NA>  <NA>         <NA>          <NA>       
## 10 Anti… 2016    76.5 ATG   americas     america_north america    
## # … with 250 more rows, and 6 more variables: members_oecd_g77 <chr>,
## #   Latitude <dbl>, Longitude <dbl>, `UN member since` <dttm>, `World bank
## #   region` <chr>, `World bank income group 2017` <chr>
…
11.7 Фасеты и серии карт

Фасетная компоновка предполагает, упорядочение элементов в матричной форме на одной странице. Как правило, картографические фасеты идентичны по содержанию, но показывают одно и то же явление при различных заданных условиях: за разные года, по разным странам и т.д. Создание фасет с помощью tmap осуществляется с помощью специальной функции tm_facets(), которой необходимо передать название переменной, отвечающей за разделение. В свою очередь, это означает, что данные должны быть приведены к «длинной» форме (если информация за разные года содержится в разных столбцах, то нужно год записать в отдельную переменную). Здесь вам пригодится знание пакета tidyr.

Рассмотрим создание фасет на примере данных Gapminder по средней продолжительности жизни c 1960 по 2010 г:

('1H3nzTwbn8z4lJ5gJ_WfDgCeGEXK3PVGcNjQ_U5og8eo' %>% # продолжительность жизни
  read_sheet() %>% 
  rename(name = 1) %>% 
  gather(year, lifexp, -name) %>% 
  dplyr::filter(year %in% c(1960, 1970, 1980, 1990, 2000, 2010)) %>% 
  left_join(read_excel('data/gapminder.xlsx', 2)) %>% 
  mutate(geo = stringr::str_to_upper(geo)) -> lifedf2) # выгружаем данные по ВВП на душу населения и сохраняем в переменную lifedf
## # A tibble: 1,560 x 13
##    name  year  lifexp geo   four_regions eight_regions six_regions
##    <chr> <chr>  <dbl> <chr> <chr>        <chr>         <chr>      
##  1 Abkh… 1960    NA   <NA>  <NA>         <NA>          <NA>       
##  2 Afgh… 1960    31.9 AFG   asia         asia_west     south_asia 
##  3 Akro… 1960    NA   <NA>  <NA>         <NA>          <NA>       
##  4 Alba… 1960    62.9 ALB   europe       europe_east   europe_cen…
##  5 Alge… 1960    47.5 DZA   africa       africa_north  middle_eas…
##  6 Amer… 1960    NA   <NA>  <NA>         <NA>          <NA>       
##  7 Ando… 1960    NA   AND   europe       europe_west   europe_cen…
##  8 Ango… 1960    36.0 AGO   africa       africa_sub_s… sub_sahara…
##  9 Angu… 1960    NA   <NA>  <NA>         <NA>          <NA>       
## 10 Anti… 1960    63.0 ATG   americas     america_north america    
## # … with 1,550 more rows, and 6 more variables: members_oecd_g77 <chr>,
## #   Latitude <dbl>, Longitude <dbl>, `UN member since` <dttm>, `World bank
## #   region` <chr>, `World bank income group 2017` <chr>
…
