Глава 12 Пространственный анализ 2. Растровые методы | Визуализация и анализ географических данных на языке R
…
Чтобы далее работать с полученными значениями, целесообразно присоединить описания зон и превратить полученную матрицу в аккуратный фрейм данных:

(mtemp_tidy = as_tibble(mtemp) %>% 
  left_join(tbl[[1]], by = c('zone' = 'ID')) %>% 
  gather(month, tmean, tmean1:tmean12) %>% 
  separate(month, c('dummy', 'month'), sep = 5) %>% 
  mutate(month = as.integer(month)) %>% 
  select(-COUNT, -dummy))
## # A tibble: 240 x 4
##     zone cover                             month    tmean
##    <dbl> <fct>                             <int>    <dbl>
##  1     1 Broadleaf Evergreen Forest            1  23.6   
##  2     2 Broadleaf Deciduous Forest            1   0.0914
##  3     3 Needleleaf Evergreen Forest           1 -12.4   
##  4     4 Needleleaf Deciduous Forest           1 -27.0   
##  5     5 Mixed Forest                          1 -15.7   
##  6     6 Tree Open                             1  -1.14  
##  7     7 Shrub                                 1   8.81  
##  8     8 Herbaceous                            1  -7.54  
##  9     9 Herbaceous with Sparse Tree/Shrub     1  24.3   
## 10    10 Sparse vegetation                     1  -9.51  
## # … with 230 more rows
…
