Глава 9 Пространственные данные | Визуализация и анализ географических данных на языке R
…
9.4.8.4 Точки по координатам

Достаточно распространенной является следующая задача: имеются координаты точек в табличной форме, необходимо создать на их основе набор пространственных объектов. Для решения этой задачи можно воспользоваться функцией st_as_sf(). Рассмотрим задачу на примере файла координат станций из базы метеорологических данных ВНИИГМИ-МЦД:

(stations = read_fwf('data/vniigmi/stations.txt', 
                    col_positions = fwf_widths(diff(c(1, 7, 42, 47, 53, 59, 67, 71)), 
                                               col_names = c('id', 'name', 'lat', 't1', 'lon', 't2', 'z')),
                    locale = locale(encoding = 'CP1251')))
## # A tibble: 1,124 x 7
##       id name                  lat t1      lon t2        z
##    <dbl> <chr>               <dbl> <chr> <dbl> <chr> <dbl>
##  1 20046 Им.Э.Т.Кренкеля,ГМО  80.6 с.ш.   58   в.д.     21
##  2 20069 Остров_Визе          79.5 с.ш.   77.0 в.д.     10
##  3 20087 Голомянный           79.6 с.ш.   90.6 в.д.      7
##  4 20107 Баренцбург           78.1 с.ш.   14.2 в.д.     73
##  5 20289 Русский              77.2 с.ш.   96.4 в.д.      9
##  6 20292 Им.Е.К.Федорова,ГМО  77.7 с.ш.  104.  в.д.     12
##  7 20353 мыс_Желания          77.0 с.ш.   68.6 в.д.      9
##  8 20476 Стерлегова           75.4 с.ш.   88.9 в.д.     10
##  9 20667 Им.М.В.Попова        73.3 с.ш.   70.0 в.д.      4
## 10 20674 Остров_Диксон        73.5 с.ш.   80.4 в.д.     42
## # … with 1,114 more rows
…
