Глава 8 Временные ряды | Визуализация и анализ географических данных на языке R
…
8.3 Создание временного фрейма данных

Данные во временных рядах часто соответствуют равноотстоящим по времени срезам (раз в несколько часов, раз в день, раз в три месяца и т.д.), что обусловлено регулярным характером сбора информации (наблюдения, предоставление отчетности и т.д.). Соответствующее предположение лежит и в основе многих функций временного анализа (таких как автокорреляционная функция). Если в данных отсутствуют некоторые временные срезы, это нарушает регулярность временного ряда, что может привести к его некорректной интерпретации. Необходимо восстановить пропущенные сроки, явным образом указав, что данных на эти сроки нет.

Помимо этого, дата может быть записана в некорректной форме. Например, оператор ввода данных перепутал месяц и день 18 марта, что привело к созданию несуществующей даты 03.18 в одной из строк.

Подобные несовершенства временных рядов важно выявить на самых ранних стадиях анализа данных. Рассмотрим, как эту задачу можно решить средствами R. В качестве источника данных будем использовать данные6 об уровне воды на гидропосте Паялка (р. Умба, Мурманская область) с 1932 по 2014 год. Отсутствие информации в файле данных закодировано числом 9999:

(src = read_delim('data/in_Umba.txt', delim = ' ', 
                 col_names = c('day', 'month', 'year', 'level'), na = '9999'))
## # A tibble: 30,316 × 4
##      day month  year level
##    <dbl> <dbl> <dbl> <dbl>
##  1     1     1  1932  49.4
##  2     2     1  1932  NA  
##  3     3     1  1932  NA  
##  4     4     1  1932  NA  
##  5     5     1  1932  NA  
##  6     6     1  1932  NA  
##  7     7     1  1932  NA  
##  8     8     1  1932  NA  
##  9     9     1  1932  NA  
## 10    10     1  1932  47  
## # … with 30,306 more rows
…
Что делать с подобными дубликатами дат — решать вам. Если известно, какие данные правильные, а какие ошибочные — можно убрать конкретные строки. Оставим только уникальные даты посредством dplyr::distinct():

tsbl = tab |> 
  filter(!is.na(Date)) |> 
  distinct(Date, .keep_all = T) |> 
  as_tsibble(index = Date)

tsbl
## # A tsibble: 30,314 x 5 [1D]
##      day month  year level Date      
##    <dbl> <dbl> <dbl> <dbl> <date>    
##  1     1     1  1932  49.4 1932-01-01
##  2     2     1  1932  NA   1932-01-02
##  3     3     1  1932  NA   1932-01-03
##  4     4     1  1932  NA   1932-01-04
##  5     5     1  1932  NA   1932-01-05
##  6     6     1  1932  NA   1932-01-06
##  7     7     1  1932  NA   1932-01-07
##  8     8     1  1932  NA   1932-01-08
##  9     9     1  1932  NA   1932-01-09
## 10    10     1  1932  47   1932-01-10
## # … with 30,304 more rows
…
\[\Psi(\tau) = \int_{-\infty}^{+\infty} f(t) f^* (t - \tau) dt,\]
где \(^*\) означает комплексное сопряжение (для вещественнозначных функций эту звездочку можно игнорировать, она нужна в целях обобщения понятия автокорреляции для случайных процессов, сечения которых являются комплексными случайными переменными).

Автокорреляционная функция случайного процесса \(X(t)\) будет иметь вид:

\[K(\tau) = \mathbb E \big[X(t) X^* (t - \tau) \big],\]
где \(\mathbb E \big[~ \big]\) — математическое ожидание.

Для нецикличных процессов, плавно изменяющихся во времени, при увеличении \(\tau\) значение АКФ падает, а это означает, что установив минимально допустимое значение автокорреляции, можно выяснить соответствующий ему сдвиг по времени. Найденная величина и будет максимально допустимой при интерполяции длиной пропуска.

Для вычисления автокорреляционной функции можно воспользоваться встроенной функцией acf(), однако с ней может быть не очень удобно работать, поскольку оне не умеет работать с пропусками в данных, и нужно искать длительный промежуток непрерывных измерений. Вместо этого воспользуемся функцией ACF() из пакета feasts:

acorr = tsbl |> ACF(level)
acorr
## # A tsibble: 41 x 2 [1D]
##         lag   acf
##    <cf_lag> <dbl>
##  1       1D 0.994
##  2       2D 0.982
##  3       3D 0.964
##  4       4D 0.943
##  5       5D 0.919
##  6       6D 0.893
##  7       7D 0.866
##  8       8D 0.839
##  9       9D 0.812
## 10      10D 0.786
## # … with 31 more rows
…
Для выполнения обычной линейной интерполяции между пропускаи воспользуемся функцией na.approx() из пакета zoo и округлим полученные значения до одного знака после запятой (что соответствует точности исходных данных):

(tsbl_int = tsbl |> 
  mutate(level_interp = zoo::na.approx(level, maxgap = max_dur) |> round(1)))
## # A tsibble: 30,316 x 6 [1D]
##      day month  year level Date       level_interp
##    <dbl> <dbl> <dbl> <dbl> <date>            <dbl>
##  1     1     1  1932  49.4 1932-01-01         49.4
##  2     2     1  1932  NA   1932-01-02         49.1
##  3     3     1  1932  NA   1932-01-03         48.9
##  4     4     1  1932  NA   1932-01-04         48.6
##  5     5     1  1932  NA   1932-01-05         48.3
##  6     6     1  1932  NA   1932-01-06         48.1
##  7     7     1  1932  NA   1932-01-07         47.8
##  8     8     1  1932  NA   1932-01-08         47.5
##  9     9     1  1932  NA   1932-01-09         47.3
## 10    10     1  1932  47   1932-01-10         47  
## # … with 30,306 more rows
…
8.5 Интерполяция с учетом предикторов

В некоторых случая интерполяцию можно уточнить с использованием предикторов. Рассмотрим уточнение прогноза уровня воды с учетом информации о температурах и осадках на р. Умба:

meteo = read_delim('data/in_Umba_meteo.txt', delim = ' ', 
                 col_names = c('day', 'month', 'year', 'temp', 'prec'), na = '9999') |> 
  mutate(Date = ymd(paste(year, month, day)),
         tempsm = zoo::rollmean(temp, 10, fill = NA, align = 'center'),
         precsum = zoo::rollsum(prec, 5, fill = NA, align = 'center')) |> 
  select(Date, temp, tempsm, prec, precsum)

tsbl_all = left_join(tsbl_int, meteo, by = 'Date')
tsbl_all
## # A tsibble: 30,316 x 10 [1D]
##      day month  year level Date       level_interp   temp tempsm  prec precsum
##    <dbl> <dbl> <dbl> <dbl> <date>            <dbl>  <dbl>  <dbl> <dbl>   <dbl>
##  1     1     1  1932  49.4 1932-01-01         49.4 -14.9   NA    0.184   NA   
##  2     2     1  1932  NA   1932-01-02         49.1 -15.1   NA    0.578   NA   
##  3     3     1  1932  NA   1932-01-03         48.9 -10.4   NA    0.942    3.97
##  4     4     1  1932  NA   1932-01-04         48.6  -7.58  NA    1.44     4.07
##  5     5     1  1932  NA   1932-01-05         48.3  -8.46 -11.3  0.826    4.42
##  6     6     1  1932  NA   1932-01-06         48.1 -13.0  -10.7  0.288    4.64
##  7     7     1  1932  NA   1932-01-07         47.8 -13.3   -9.72 0.925    3.95
##  8     8     1  1932  NA   1932-01-08         47.5 -10.4   -8.83 1.16     3.79
##  9     9     1  1932  NA   1932-01-09         47.3 -10.4   -8.33 0.75     4.53
## 10    10     1  1932  47   1932-01-10         47    -9.16  -7.62 0.662    4.49
## # … with 30,306 more rows
…
8.5.1 Пересчет на другую временную сетку

Когда данные, поступающие из различных источников, привязаны к несовпадающим временным срезам, возникает задача приведения их к единой временной сетке. Как правило, эта сетка имеет регулярный шаг (каждый час, каждый месяц и т.д.), поскольку это упрощает выполнение статистического анализа.

Одним из источников данных, не привязанных к жесткой временной сетке, является геосенсорная сеть домашних метеостанций NETATMO, которая собирает информацию с пользовательских устройств примерно каждый полчаса. Сроки, однако, четко не соблюдаются. Помимо этого, система, в силу её добровольно-волонтёрского характера, не предусматривает бесперебойное функционирование всех метеостанций: пользователь может отключить свой прибор на несколько часов или дней, в результате чего в данных могут образоваться дополнительные пропуски. Вследствие этого данные NETATMO характеризуются высокой степенью иррегулярности во времени.

Загрузим в качестве примера данные по метеостанции с идентификатором 70_ee_50_00_8e_1a, расположенной в пределах Московского мегаполиса (данные выгружены посредством NETATMO Weather API):

(tab = read_csv('data/70_ee_50_00_8e_1a.csv'))
## # A tibble: 1,405 × 11
##    altitude humidity id      latit…¹ longi…² press…³ tempe…⁴ time_humidity      
##       <dbl>    <dbl> <chr>     <dbl>   <dbl>   <dbl>   <dbl> <dttm>             
##  1      189       55 70:ee:…    55.7    37.6   1014.    23.1 2019-09-04 14:11:27
##  2      189       56 70:ee:…    55.7    37.6   1013.    22.5 2019-09-04 14:51:36
##  3      189       57 70:ee:…    55.7    37.6   1014.    21.9 2019-09-04 15:52:15
##  4      189       59 70:ee:…    55.7    37.6   1014.    21.1 2019-09-04 16:22:10
##  5      189       62 70:ee:…    55.7    37.6   1014     20   2019-09-04 16:52:04
##  6      189       65 70:ee:…    55.7    37.6   1014.    19.7 2019-09-04 17:52:43
##  7      189       66 70:ee:…    55.7    37.6   1014.    19.6 2019-09-04 18:22:38
##  8      189       67 70:ee:…    55.7    37.6   1014.    19.5 2019-09-04 18:53:23
##  9      189       68 70:ee:…    55.7    37.6   1014.    19.2 2019-09-04 19:58:19
## 10      189       68 70:ee:…    55.7    37.6   1015.    19.2 2019-09-04 20:28:13
## # … with 1,395 more rows, 3 more variables: time_pressure <dttm>,
## #   time_temperature <dttm>, timezone <chr>, and abbreviated variable names
## #   ¹​latitude, ²​longitude, ³​pressure, ⁴​temperature
…
8.6 Аппроксимация по времени

Одной из важных составляющих работы с временными данными является анализ временных трендов и закономерностей. В качестве примера возьмем данные межгодичных изменений характеристик стока реки Мезень на посту Малонисогорская7:

(tab = read_csv('data/Mezen.csv'))
## # A tibble: 75 × 57
##    year_number Year1 Year2 datestart  datepolend    Qy  Qmax datemax     Qygr
##          <dbl> <dbl> <dbl> <date>     <date>     <dbl> <dbl> <date>     <dbl>
##  1           1  1938  1939 2000-03-23 2000-06-08  98.1   747 2000-04-03  19.9
##  2           2  1939  1940 2000-03-16 2000-07-11  66.9   487 2000-04-28  14.8
##  3           3  1940  1941 2000-03-09 2000-07-12  97.4   995 2000-04-28  18.9
##  4           4  1941  1942 2000-03-24 2000-07-21 214.   2030 2000-05-01  31.4
##  5           5  1942  1943 2000-04-02 2000-07-31 242.   2790 2000-05-08  26.9
##  6           6  1943  1944 2000-03-24 2000-06-15  71.3   451 2000-05-02  26.5
##  7           7  1944  1945 2000-02-26 2000-06-30  89.0   530 2000-04-28  27.0
##  8           8  1945  1946 2000-03-25 2000-07-13 128.   1220 2000-04-27  33.9
##  9           9  1946  1947 2000-03-15 2000-06-30 179.   2150 2000-04-28  25.8
## 10          10  1947  1948 2000-03-06 2000-07-15 153.   1720 2000-04-16  31.3
## # … with 65 more rows, and 48 more variables: Qmmsummer <dbl>,
## #   monmmsummer <date>, Qmmwin <dbl>, nommwin <date>, Q30s <dbl>,
## #   date30s1 <date>, date30s2 <date>, Q30w <dbl>, date30w1 <date>,
## #   date30w2 <date>, Q10s <dbl>, date10s1 <date>, date10s2 <date>, Q10w <dbl>,
## #   date10w1 <date>, date10w2 <date>, Q5s <dbl>, date5s1 <date>,
## #   date5s2 <date>, Q5w <dbl>, date5w1 <date>, date5w2 <date>, Wy <dbl>,
## #   Wgr <dbl>, Wpol1 <dbl>, Wpol2 <dbl>, Wpol3 <dbl>, Wpavs1 <dbl>, …
…
